"id","name","rx_dose","conversion_factor","dosage_strength","type"
1,"BUTORPHANOL TARTRATE 10 MG/ML NASAL SPRAY","",7,10,1
2,"BUTORPHANOL TARTRATE 10 MG/ML NASAL SPRAY AEROSOL","",7,10,1
3,"BUTORPHANOL TARTRATE 2 MG/ML INJECTION","",7,2,1
4,"BUTORPHANOL TARTRATE NASL","",7,,1
5,"STADOL 1 MG/ML INJECTION (BUTORPHANOL TARTRATE)","",7,1,1
6,"STADOL INJ","",7,,1
7,"STADOL NS 10 MG/ML NASAL SPRAY AEROSOL (BUTORPHANOL TARTRATE)","",7,10,1
8,"ACETAMINOPHEN 120 MG-CODEINE 12 MG/5 ML (5 ML) ORAL SOLN","",0.15,2.4,1
9,"ACETAMINOPHEN 120 MG-CODEINE 12 MG/5 ML ELIXIR","",0.15,2.4,1
10,"ACETAMINOPHEN 120 MG-CODEINE 12 MG/5 ML ORAL SOLN","",0.15,2.4,1
11,"ACETAMINOPHEN 120 MG-CODEINE 12 MG/5 ML ORAL SUSP","",0.15,2.4,1
12,"ACETAMINOPHEN 240 MG-CODEINE 24 MG/10 ML (10 ML) ORAL SOLN","",0.15,2.4,1
13,"ACETAMINOPHEN 300 MG-CODEINE 15 MG TABLET","",0.15,15,1
14,"ACETAMINOPHEN 300 MG-CODEINE 30 MG TABLET","",0.15,30,1
15,"ACETAMINOPHEN 300 MG-CODEINE 30 MG/12.5 ML (12.5 ML) ORAL SOLN","",0.15,2.4,1
16,"ACETAMINOPHEN 300 MG-CODEINE 60 MG TABLET","",0.15,60,1
17,"ACETAMINOPHEN WITH CODEINE (TYLENOL WITH CODEINE)","",0.15,,1
18,"ACETAMINOPHEN-CODEINE 120 MG-12 MG/5 ML ELIXIR (ACETAMINOPHEN WITH CODEINE)","",0.15,2.4,1
19,"ACETAMINOPHEN-CODEINE 120 MG-12 MG/5 ML ORAL SOLN (ACETAMINOPHEN WITH CODEINE)","",0.15,2.4,1
20,"ACETAMINOPHEN-CODEINE 120 MG-12 MG/5 ML ORAL SUSP (ACETAMINOPHEN WITH CODEINE)","",0.15,2.4,1
21,"ACETAMINOPHEN-CODEINE 300 MG-15 MG TAB (ACETAMINOPHEN WITH CODEINE)","",0.15,15,1
22,"ACETAMINOPHEN-CODEINE 300 MG-30 MG TAB (ACETAMINOPHEN WITH CODEINE)","",0.15,30,1
23,"ACETAMINOPHEN-CODEINE 300 MG-60 MG TAB (ACETAMINOPHEN WITH CODEINE)","",0.15,60,1
24,"ACETAMINOPHEN-CODEINE 325 MG-15 MG TAB (ACETAMINOPHEN WITH CODEINE)","",0.15,15,1
25,"ACETAMINOPHEN-CODEINE 325 MG-30 MG CAP (ACETAMINOPHEN WITH CODEINE)","",0.15,30,1
26,"ACETAMINOPHEN-CODEINE 325 MG-30 MG TAB (ACETAMINOPHEN WITH CODEINE)","",0.15,30,1
27,"ACETAMINOPHEN-CODEINE 325 MG-60 MG CAP (ACETAMINOPHEN WITH CODEINE)","",0.15,60,1
28,"ACETAMINOPHEN-CODEINE 500 MG-30 MG TAB (ACETAMINOPHEN WITH CODEINE)","",0.15,30,1
29,"ACETAMINOPHEN-CODEINE 650 MG-30 MG TAB (ACETAMINOPHEN WITH CODEINE)","",0.15,30,1
30,"ACETAMINOPHEN-CODEINE ORAL","",0.15,,1
31,"ACETAMINOPHEN-CODEINE TABLET 15-300MG PO (CODEINE PHOS/ACETAMINOPHEN)","",0.15,15,1
32,"ACETAMINOPHEN-CODEINE TABLET 30-300MG PO (CODEINE PHOS/ACETAMINOPHEN)","",0.15,30,1
33,"ACETAMINOPHEN-CODEINE TABLET 60-300MG PO (CODEINE PHOS/ACETAMINOPHEN)","",0.15,60,1
34,"ASCOMP W/CODEINE 30 MG-50 MG-325 MG-40 MG CAP (CODEINE/BUTALBITAL/ASA/CAFFEIN)","",0.15,30,1
35,"ASPIRIN-CODEINE #3 325 MG-30 MG TAB (ASPIRIN/CODEINE PHOSPHATE)","",0.15,30,1
36,"ASPIRIN-CODEINE #3 ORAL","",0.15,,1
37,"ASPIRIN-CODEINE 325 MG-30 MG TAB (ASPIRIN/CODEINE PHOSPHATE)","",0.15,30,1
38,"ASPIRIN-CODEINE 325 MG-60 MG TAB (ASPIRIN/CODEINE PHOSPHATE)","",0.15,60,1
39,"ASPIRIN-CODEINE ORAL","",0.15,,1
40,"BIOTUSSIN AC 10 MG-100 MG/5 ML SYRUP (GUAIFENESIN/CODEINE PHOS)","",0.15,20,1
41,"BIOTUSSIN DAC 30 MG-10 MG-100 MG/5 ML SYRUP (P-EPHED HCL/CODEINE/GUAIFEN)","",0.15,2,1
42,"BROMANYL SYRUP (CODEINE PHOS/BR-DPHA HCL)","",0.15,,1
43,"BROMPHENIRAMINE-PE-CODEINE 4 MG-7.5 MG-10 MG/5 ML ORAL LIQUID (BROMPHENIRAMIN/PE/CODEINE PHOS)","",0.15,2,1
44,"BRONTEX 10 MG-300 MG TAB (GUAIFENESIN/CODEINE PHOS)","",0.15,10,1
45,"BRONTEX 10 MG-300 MG/20 ML ORAL LIQUID (GUAIFENESIN/CODEINE PHOS)","",0.15,15,1
46,"BUTALBITAL 50 MG-ACETAMINOPHEN 300 MG-CAFFEINE 40 MG-CODEINE 30 MG CAP (BUTALBIT/ACETAMIN/CAFF/CODEINE)","",0.15,30,1
47,"BUTALBITAL COMPOUND W/CODEINE 30 MG-50 MG-325 MG-40 MG CAP (CODEINE/BUTALBITAL/ASA/CAFFEIN)","",0.15,30,1
48,"BUTALBITAL COMPOUND W/CODEINE 30 MG-50 MG-325 MG-40 MG CAPSULE (CODEINE/BUTALBITAL/ASA/CAFFEIN)","",0.15,30,1
49,"BUTALBITAL COMPOUND W/CODEINE ORAL","",0.15,,1
50,"BUTALBITAL COMPOUND-CODEINE 30 MG-50 MG-325 MG-40 MG CAP (CODEINE/BUTALBITAL/ASA/CAFFEIN)","",0.15,30,1
51,"BUTALBITAL-ACETAMINOPHEN-CAFFEINE-CODEINE 50 MG-325 MG-40 MG-30 MG CAP (BUTALBIT/ACETAMIN/CAFF/CODEINE)","",0.15,30,1
52,"BUTALBITAL-CAFF-APAP-CODEINE CAPSULE 30-325-50 PO (CODEINE/APAP/CAFFEIN/BUTALB)","",0.15,30,1
53,"CAPITAL W/CODEINE ORAL SUSP 12-120MG/5 PO (CODEINE PHOS/ACETAMINOPHEN)","",0.15,2.4,1
54,"CAPITAL WITH CODEINE 120 MG-12 MG/5 ML ORAL SUSP (ACETAMINOPHEN WITH CODEINE)","",0.15,2.4,1
55,"CARISOPRODOL-ASA-CODEINE 200 MG-325 MG-16 MG TAB (CODEINE PHOS/CARISOPRODOL/ASA)","",0.15,16,1
56,"CHERACOL COUGH 10 MG-100 MG/5 ML SYRUP (GUAIFENESIN/CODEINE PHOS)","",0.15,20,1
57,"CHERATUSSIN AC 10 MG-100 MG/5 ML ORAL LIQUID (GUAIFENESIN/CODEINE PHOSPHATE)","",0.15,20,1
58,"CHERATUSSIN AC 10 MG-100 MG/5 ML SYRUP (GUAIFENESIN/CODEINE PHOS)","",0.15,20,1
59,"CHERATUSSIN DAC 30 MG-10 MG-100 MG/5 ML SYRUP (P-EPHED HCL/CODEINE/GUAIFEN)","",0.15,2,1
60,"CHLORCYCLIZINE-CODEINE 9.375 MG-10 MG/5 ML ORAL LIQUID (CHLORCYCLIZINE/CODEINE)","",0.15,2,1
61,"CHLORPHEN-CODEINE-ACETAMIN ORAL","",0.15,,1
62,"CHLORPHENIRAMINE-CODEINE 2 MG-8 MG/5 ML ORAL LIQUID (CHLORPHENIRAMINE/CODEINE PHOS)","",0.15,1.6,1
63,"CODEINE 15 MG TAB","",0.15,15,1
64,"CODEINE 15 MG TABLET","",0.15,15,1
65,"CODEINE 15 MG/5 ML ORAL SOLN","",0.15,3,1
66,"CODEINE 15 MG/ML SYRINGE","",0.15,15,1
67,"CODEINE 30 MG HYPODERMIC TAB","",0.15,30,1
68,"CODEINE 30 MG TAB","",0.15,30,1
69,"CODEINE 30 MG TABLET","",0.15,30,1
70,"CODEINE 30 MG/5 ML ORAL SOLUTION","",0.15,6,1
71,"CODEINE 30 MG/ML SYRINGE","",0.15,30,1
72,"CODEINE 60 MG TAB","",0.15,60,1
73,"CODEINE 60 MG TABLET","",0.15,60,1
74,"CODEINE PHOSPHATE ORAL","",0.15,,1
75,"CODEINE PHOSPHATE SOLUBLE 30 MG HYPODERMIC TAB","",0.15,30,1
76,"CODEINE PHOSPHATE SOLUBLE 60 MG HYPODERMIC TAB","",0.15,60,1
77,"CODEINE SULFATE 15 MG/2.5 ML (2.5 ML) ORAL SOLUTION","",0.15,6,1
78,"CODEINE SULFATE 30 MG/5 ML (5 ML) ORAL SOLUTION","",0.15,6,1
79,"CODEINE SULFATE ORAL","",0.15,,1
80,"CODEINE-ASA-SALICYL-ACETAM-CAF ORAL","",0.15,,1
81,"CODEINE-BUTALBITAL-ACETAMINOPHEN-CAFFEINE 30 MG-50 MG-325 MG-40 MG CAP (CODEINE/BUTALBIT/ACETAMIN/CAFF)","",0.15,30,1
82,"CODEINE-BUTALBITAL-ASA-CAFF ORAL","",0.15,,1
83,"CODEINE-BUTALBITAL-ASA-CAFFEINE 30 MG-50 MG-325 MG-40 MG CAP (CODEINE/BUTALBITAL/ASA/CAFFEIN)","",0.15,30,1
84,"CODEINE-BUTALBITAL-ASA-CAFFEINE 30 MG-50 MG-325 MG-40 MG CAPSULE (CODEINE/BUTALBITAL/ASA/CAFFEIN)","",0.15,30,1
85,"CODEINE-CPM-PE-ACETAMINOPHEN ORAL","",0.15,,1
86,"CODEINE-GUAIFENESIN 10 MG-100 MG/5 ML ORAL LIQUID (GUAIFENESIN/CODEINE PHOS)","",0.15,2,1
87,"CODEINE-GUAIFENESIN 10 MG-100 MG/5 ML ORAL LIQUID (GUAIFENESIN/CODEINE PHOSPHATE)","",0.15,2,1
88,"CODEINE-GUAIFENESIN 10 MG-100 MG/5 ML SYRUP (GUAIFENESIN/CODEINE PHOS)","",0.15,2,1
89,"CODEINE-GUAIFENESIN 10 MG-100 MG/5 ML SYRUP (GUAIFENESIN/CODEINE PHOSPHATE)","",0.15,2,1
90,"CODEINE-GUAIFENESIN 10 MG-200 MG/5 ML ORAL LIQUID (GUAIFENESIN/CODEINE PHOS)","",0.15,2,1
91,"CODEINE-GUAIFENESIN 10 MG-300 MG TAB (GUAIFENESIN/CODEINE PHOS)","",0.15,10,1
92,"CODEINE-GUAIFENESIN 10 MG-300 MG TABLET (GUAIFENESIN/CODEINE PHOSPHATE)","",0.15,10,1
93,"CODEINE-GUAIFENESIN 10 MG-300 MG/20 ML ORAL LIQUID (GUAIFENESIN/CODEINE PHOS)","",0.15,0.5,1
94,"CODEINE-GUAIFENESIN 10 MG-300 MG/5 ML ORAL LIQUID (GUAIFENESIN/CODEINE PHOS)","",0.15,2,1
95,"CODEINE-GUAIFENESIN 10 MG-400 MG TAB (GUAIFENESIN/CODEINE PHOS)","",0.15,10,1
96,"CODEINE-GUAIFENESIN 20 MG-200 MG/5 ML ORAL LIQUID (GUAIFENESIN/CODEINE PHOS)","",0.15,4,1
97,"CODEINE-GUAIFENESIN 20 MG-400 MG TAB (GUAIFENESIN/CODEINE PHOS)","",0.15,20,1
98,"CODEINE-GUAIFENESIN 6.3 MG-100 MG/5 ML ORAL LIQUID (GUAIFENESIN/CODEINE PHOS)","",0.15,1.26,1
99,"CODEINE-GUAIFENESIN 7.5 MG-225 MG/5 ML ORAL LIQUID (GUAIFENESIN/CODEINE PHOS)","",0.15,1.5,1
100,"CODEINE-GUAIFENESIN 8 MG-200 MG/5 ML ORAL LIQUID (GUAIFENESIN/CODEINE PHOS)","",0.15,1.6,1
101,"CODEINE-GUAIFENESIN 9 MG-200 MG CAP (GUAIFENESIN/CODEINE PHOS)","",0.15,9,1
102,"CODEINE-GUAIFENESIN ORAL","",0.15,,1
103,"CODEINE-GUAIFENESIN SYRUP (GUAIFENESIN/CODEINE PHOS)","",0.15,,1
104,"CPM-PHENYLEPH-DIHYDROCODEINE 2 MG-4 MG-6.5 MG/5 ML ORAL LIQUID (PHENYLEPHRINE/DHCODEINE BT/CP)","",0.15,1.3,1
105,"CPM-PSEUDOEPHED-DIHYDROCODEINE 2 MG-15 MG-7.5 MG/5 ML SYRUP (P-EPHED HCL/DHCODEINE BT/CP)","",0.15,1.5,1
106,"DIABETIC TUSSIN C 10 MG-200 MG/5 ML ORAL LIQUID (GUAIFENESIN/CODEINE PHOS)","",0.15,2,1
107,"DIHISTINE EXPECTORANT-CODEINE 30 MG-10 MG-100 MG/5 ML SYRUP (P-EPHED HCL/CODEINE/GUAIFEN)","",0.15,2,1
108,"FIORICET WITH CODEINE 50 MG-325 MG-40 MG-30 MG CAPSULE (BUTALBIT/ACETAMIN/CAFF/CODEINE)","",0.15,30,1
109,"FIORICET WITH CODEINE ORAL","",0.15,,1
110,"FIORICET-CODEINE 30 MG-50 MG-325 MG-40 MG CAP (CODEINE/BUTALBIT/ACETAMIN/CAFF)","",0.15,30,1
111,"FIORICET-CODEINE ORAL","",0.15,,1
112,"FIORINAL-CODEINE #3 30 MG-50 MG-325 MG-40 MG CAP (CODEINE/BUTALBITAL/ASA/CAFFEIN)","",0.15,30,1
113,"FIORINAL-CODEINE #3 30 MG-50 MG-325 MG-40 MG CAPSULE (CODEINE/BUTALBITAL/ASA/CAFFEIN)","",0.15,30,1
114,"FIORINAL-CODEINE #3 ORAL","",0.15,,1
115,"FIORTAL/CODEINE 30 MG-50 MG-325 MG-40 MG CAP (CODEINE/BUTALBITAL/ASA/CAFFEIN)","",0.15,30,1
116,"GUA C 10 MG-100 MG/5 ML ORAL LIQUID (GUAIFENESIN/CODEINE PHOS)","",0.15,2,1
117,"GUAIATUSSIN AC 10 MG-100 MG/5 ML ORAL LIQUID (GUAIFENESIN/CODEINE PHOSPHATE)","",0.15,2,1
118,"GUAIATUSSIN AC 10 MG-100 MG/5 ML SYRUP (GUAIFENESIN/CODEINE PHOS)","",0.15,2,1
119,"GUAI-CO 10 MG-100 MG/5 ML ORAL LIQUID (GUAIFENESIN/CODEINE PHOS)","",0.15,2,1
120,"GUAIFEN-C 10 MG-300 MG/20 ML ORAL LIQUID (GUAIFENESIN/CODEINE PHOS)","",0.15,0.5,1
121,"GUAIFENESIN AC 10 MG-100 MG/5 ML ORAL LIQUID (GUAIFENESIN/CODEINE PHOS)","",0.15,2,1
122,"GUAIFENESIN AC 10 MG-100 MG/5 ML SYRUP (GUAIFENESIN/CODEINE PHOS)","",0.15,2,1
123,"GUAIFENESIN DAC 30 MG-10 MG-100 MG/5 ML SYRUP (P-EPHED HCL/CODEINE/GUAIFEN)","",0.15,2,1
124,"GUAIFENESIN NR 10 MG-100 MG/5 ML ORAL LIQUID (GUAIFENESIN/CODEINE PHOS)","",0.15,2,1
125,"GUAIFENESIN W/CODEINE LIQUID 100-10MG/5 PO (GUAIFENESIN/CODEINE PHOS)","",0.15,2,1
126,"GUAIFENESIN/CODEINE (GUIATUSS AC,ROBITUSSIN AC)","",0.15,,1
127,"GUAIFENESIN/P-EPHEDRINE/COD 30 MG-10 MG-100 MG/5 ML SYRUP (P-EPHED HCL/CODEINE/GUAIFEN)","",0.15,2,1
128,"GUAIFENESIN-CODEINE SYRUP 100-10MG/5 PO (GUAIFENESIN/CODEINE PHOS)","",0.15,2,1
129,"GUAITUSSIN AC 10 MG-100 MG/5 ML ORAL LIQUID (GUAIFENESIN/CODEINE PHOS)","",0.15,2,1
130,"GUAITUSSIN DAC 30 MG-10 MG-100 MG/5 ML SYRUP (P-EPHED HCL/CODEINE/GUAIFEN)","",0.15,2,1
131,"GUIATUSS AC 10 MG-100 MG/5 ML SYRUP (GUAIFENESIN/CODEINE PHOS)","",0.15,2,1
132,"GUIATUSS DAC 30 MG-10 MG-100 MG/5 ML SYRUP (P-EPHED HCL/CODEINE/GUAIFEN)","",0.15,2,1
133,"GUIATUSSIN DAC 30 MG-10 MG-100 MG/5 ML SYRUP (P-EPHED HCL/CODEINE/GUAIFEN)","",0.15,2,1
134,"GUIATUSSIN W/CODEINE SYRUP (GUAIFENESIN/CODEINE PHOS)","",0.15,,1
135,"HALOTUSSIN AC 10 MG-100 MG/5 ML SYRUP (GUAIFENESIN/CODEINE PHOS)","",0.15,2,1
136,"HYDRO-TUSSIN DHC 2 MG-15 MG-7.5 MG/5 ML SYRUP (P-EPHED HCL/DHCODEINE BT/CP)","",0.15,3,1
137,"IOPHEN 10 MG-100 MG/5 ML SYRUP (GUAIFENESIN/CODEINE PHOS)","",0.15,2,1
138,"IOPHEN C-NR 10 MG-100 MG/5 ML ORAL LIQUID (GUAIFENESIN/CODEINE PHOS)","",0.15,2,1
139,"IOPHEN-C NR LIQUID 100-10MG/5 PO (GUAIFENESIN/CODEINE PHOS)","",0.15,2,1
140,"MYTUSSIN AC 10 MG-100 MG/5 ML SYRUP (GUAIFENESIN/CODEINE PHOS)","",0.15,2,1
141,"MYTUSSIN DAC 30 MG-10 MG-100 MG/5 ML SYRUP (P-EPHED HCL/CODEINE/GUAIFEN)","",0.15,2,1
142,"NOVAHISTINE DH 2 MG-4 MG-6.5 MG/5 ML ORAL LIQUID (PHENYLEPHRINE/DHCODEINE BT/CP)","",0.15,0.8,1
143,"NOVAHISTINE DH 2 MG-5 MG-7.25 MG/5 ML ORAL LIQUID (PHENYLEPHRINE/DHCODEINE BT/CP)","",0.15,1,1
144,"NOVAHISTINE EXPECTORANT 30 MG-10 MG-100 MG/5 ML SYRUP (P-EPHED HCL/CODEINE/GUAIFEN)","",0.15,2,1
145,"NUCOTUSS EXPECTORANT 30 MG-10 MG-100 MG/5 ML SYRUP (P-EPHED HCL/CODEINE/GUAIFEN)","",0.15,2,1
146,"PHENERGAN VC-CODEINE 5 MG-6.25 MG-10 MG/5 ML SYRUP (PHENYLEPHRINE HCL/COD/PROMETH)","",0.15,1.25,1
147,"PHENERGAN VC-CODEINE ORAL","",0.15,,1
148,"PHENERGAN-CODEINE 6.25 MG-10 MG/5 ML SYRUP (CODEINE/PROMETHAZINE HCL)","",0.15,1.25,1
149,"PHENERGAN-CODEINE ORAL","",0.15,,1
150,"PHENYLEPH-CODEINE-ACETAMINOPHEN-GUAIFEN 10 MG-10 MG-500 MG-400 MG TAB (PHENYLEPH/CODEINE/ACET/GUAIFEN)","",0.15,10,1
151,"PHENYLEPH-CODEINE-ACETAMINOPHEN-GUAIFEN 10 MG-20 MG-500 MG-400 MG TAB (PHENYLEPH/CODEINE/ACET/GUAIFEN)","",0.15,20,1
152,"PHENYLEPHRINE-CODEINE 10 MG-10 MG/5 ML ORAL LIQUID (PHENYLEPHRINE HCL/CODEINE PHOS)","",0.15,2,1
153,"PHENYLEPHRINE-CODEINE 7.5 MG-10 MG/5 ML ORAL LIQUID (PHENYLEPHRINE HCL/CODEINE PHOS)","",0.15,2,1
154,"PHENYLEPHRINE-CODEINE-GG 10 MG-10 MG-400 MG TAB (PHENYLEPHRINE/CODEINE/GUAIFEN)","",0.15,10,1
155,"PHENYLHISTINE EXPECTORANT 30 MG-10 MG-100 MG/5 ML SYRUP (P-EPHED HCL/CODEINE/GUAIFEN)","",0.15,2,1
156,"PHENYLPROP-CODEINE-GG SYRUP (GUAIFENESIN/PPA HCL/CODEINE)","",0.15,,1
157,"PHRENILIN W/CAFFEINE-CODEINE 30 MG-50 MG-325 MG-40 MG CAP (CODEINE/BUTALBIT/ACETAMIN/CAFF)","",0.15,30,1
158,"POLY-TUSSIN AC 4 MG-7.5 MG-10 MG/5 ML ORAL LIQUID (BROMPHENIRAMIN/PE/CODEINE PHOS)","",0.15,30,1
159,"PROMETHAZINE VC W/COD (CODEINE/PROMETHAZINE HCL)","",0.15,,1
160,"PROMETHAZINE VC-CODEINE 5 MG-6.25 MG-10 MG/5 ML SYRUP (PHENYLEPHRINE HCL/COD/PROMETH)","",0.15,1.25,1
161,"PROMETHAZINE VC-CODEINE ORAL","",0.15,,1
162,"PROMETHAZINE VC-CODEINE SYRUP (PHENYLEPHRINE HCL/COD/PROMETH)","",0.15,,1
163,"PROMETHAZINE-CODEINE 6.25 MG-10 MG/5 ML SYRUP (CODEINE/PROMETHAZINE HCL)","",0.15,1.25,1
164,"PROMETHAZINE-CODEINE ORAL","",0.15,,1
165,"PROMETHAZINE-CODEINE SYRUP (CODEINE/PROMETHAZINE HCL)","",0.15,,1
166,"PROMETHAZINE-CODEINE SYRUP 10-6.25/5 PO (CODEINE/PROMETHAZINE HCL)","",0.15,2,1
167,"PSEUDOEPHED-CODEINE-ACETAMINOPHEN-GUAIF 60 MG-20 MG-500 MG-400 MG TAB (PSEUDOEPH/CODEINE/ACET/GUAIFEN)","",0.15,20,1
168,"PSEUDOEPHEDRINE-CODEINE-GG 30 MG-10 MG-100 MG/5 ML SYRUP (P-EPHED HCL/CODEINE/GUAIFEN)","",0.15,2,1
169,"ROBAFEN AC 10 MG-100 MG/5 ML SYRUP (GUAIFENESIN/CODEINE PHOS)","",0.15,2,1
170,"ROBITUSSIN A-C 10 MG-100 MG/5 ML SYRUP (GUAIFENESIN/CODEINE PHOS)","",0.15,2,1
171,"ROBITUSSIN DAC 30 MG-10 MG-100 MG/5 ML SYRUP (P-EPHED HCL/CODEINE/GUAIFEN)","",0.15,2,1
172,"SOMA COMPOUND WITH CODEINE 200 MG-325 MG-16 MG TAB (CODEINE PHOS/CARISOPRODOL/ASA)","",0.15,200,1
173,"TUSSI-ORGANIDIN NR 10 MG-100 MG/5 ML ORAL LIQUID (GUAIFENESIN/CODEINE PHOS)","",0.15,2,1
174,"TUSSI-ORGANIDIN NR 10 MG-300 MG/5 ML ORAL LIQUID (GUAIFENESIN/CODEINE PHOS)","",0.15,2,1
175,"TUSSI-ORGANIDIN-S NR 10 MG-300 MG/5 ML ORAL LIQUID (GUAIFENESIN/CODEINE PHOS)","",0.15,2,1
176,"TUSSIREX SYRUP (PE/CODEINE/PHENIR/SODIUM CIT)","",0.15,,1
177,"TYLENOL #3","",0.15,,1
178,"TYLENOL-CODEINE #2 300 MG-15 MG TAB (ACETAMINOPHEN WITH CODEINE)","",0.15,15,1
179,"TYLENOL-CODEINE #3 300 MG-30 MG TAB (ACETAMINOPHEN WITH CODEINE)","",0.15,30,1
180,"TYLENOL-CODEINE #3 300 MG-30 MG TABLET (ACETAMINOPHEN WITH CODEINE)","",0.15,30,1
181,"TYLENOL-CODEINE #3 ORAL","",0.15,,1
182,"TYLENOL-CODEINE #4 300 MG-60 MG TAB (ACETAMINOPHEN WITH CODEINE)","",0.15,60,1
183,"TYLENOL-CODEINE #4 ORAL","",0.15,,1
184,"TYLENOL-CODEINE 120 MG-12 MG/5 ML ELIXIR (ACETAMINOPHEN WITH CODEINE)","",0.15,2.4,1
185,"ACTIQ 1,200 MCG LOZENGE ON A HANDLE (FENTANYL CITRATE)","",0.13,1.2,1
186,"ACTIQ 1,600 MCG LOZENGE ON A HANDLE (FENTANYL CITRATE)","",0.13,1.6,1
187,"ACTIQ 200 MCG LOZENGE ON A HANDLE (FENTANYL CITRATE)","",0.13,0.2,1
188,"ACTIQ 400 MCG LOZENGE ON A HANDLE (FENTANYL CITRATE)","",0.13,0.4,1
189,"ACTIQ 600 MCG LOZENGE ON A HANDLE (FENTANYL CITRATE)","",0.13,0.6,1
190,"ACTIQ 800 MCG LOZENGE ON A HANDLE (FENTANYL CITRATE)","",0.13,0.8,1
191,"DURAGESIC 100 MCG/HR 72 HR TRANSDERM PATCH (FENTANYL)","",0.13,0.1,1
192,"DURAGESIC 100 MCG/HR TRANSDERM PATCH (FENTANYL)","",7.2,0.1,1
193,"DURAGESIC 12 MCG/HR 72 HR TRANSDERM PATCH (FENTANYL)","",7.2,0.012,1
194,"DURAGESIC 25 MCG/HR 72 HR TRANSDERM PATCH (FENTANYL)","",7.2,0.025,1
195,"DURAGESIC 50 MCG/HR 72 HR TRANSDERM PATCH (FENTANYL)","",7.2,0.05,1
196,"DURAGESIC 50 MCG/HR TRANSDERM PATCH (FENTANYL)","",7.2,0.05,1
197,"DURAGESIC 75 MCG/HR 72 HR TRANSDERM PATCH (FENTANYL)","",7.2,0.075,1
198,"DURAGESIC 75 MCG/HR TRANSDERM PATCH (FENTANYL)","",7.2,0.075,1
199,"DURAGESIC TD","",,,1
200,"FENTANYL (BULK) 100 % POWDER","",,,1
201,"FENTANYL (BULK) MISC","",,,1
1302,"OXYCODONE 10 MG/0.5 ML ORAL SYRINGE (FOR ORAL USE ONLY)","",1.5,20,1
1303,"DILAUDID (PF) 1 MG/ML INJECTION SYRINGE (HYDROMORPHONE HCL/PF)","",20,1,1
1304,"OXYCODONE ER 13.5 MG CAPSULE SPRINKLE EXT RELEASE 12 HR(TAMPER RESIST)","",1.5,13.5,1
206,"FENTANYL 1,200 MCG LOZENGE ON A HANDLE","",0.13,1.2,1
207,"FENTANYL 100 MCG BUCCAL TAB, EFFERVESCENT","",0.13,0.1,1
209,"FENTANYL 100 MCG/HR 72 HR TRANSDERM PATCH","",7.2,0.1,1
210,"FENTANYL 100 MCG/HR TRANSDERM PATCH","",7.2,0.1,1
211,"FENTANYL 12 MCG/HR 72 HR TRANSDERM PATCH","",7.2,0.012,1
212,"FENTANYL 12 MCG/HR TRANSDERM PATCH","",7.2,0.012,1
213,"FENTANYL 200 MCG BUCCAL TAB, EFFERVESCENT","",0.13,0.2,1
214,"FENTANYL 200 MCG BUCCAL TABLET, EFFERVESCENT","",0.13,0.2,1
215,"FENTANYL 200 MCG LOZENGE ON A HANDLE","",0.13,0.2,1
216,"FENTANYL 200 MCG SUBLINGUAL TAB","",0.13,0.2,1
217,"FENTANYL 25 MCG/HR 72 HR TRANSDERM PATCH","",7.2,0.025,1
218,"FENTANYL 25 MCG/HR TRANSDERM PATCH","",7.2,0.025,1
219,"FENTANYL 37.5 MCG/HOUR TRANSDERMAL PATCH","",7.2,0.0375,1
220,"FENTANYL 400 MCG (HOSP) LOZENGE ON A HANDLE","",0.13,0.4,1
221,"FENTANYL 400 MCG BUCCAL TAB, EFFERVESCENT","",0.13,0.4,1
222,"FENTANYL 400 MCG BUCCAL TABLET, EFFERVESCENT","",0.13,0.4,1
223,"FENTANYL 400 MCG LOZENGE ON A HANDLE","",0.13,0.4,1
224,"FENTANYL 400 MCG SUBLINGUAL TAB","",0.13,0.4,1
225,"FENTANYL 50 MCG/HR 72 HR TRANSDERM PATCH","",7.2,0.05,1
226,"FENTANYL 50 MCG/HR TRANSDERM PATCH","",7.2,0.05,1
227,"FENTANYL 600 MCG LOZENGE ON A HANDLE","",0.13,0.6,1
228,"FENTANYL 600 MCG/SPRAY SUBLINGUAL SPRAY","",0.16,0.6,1
229,"FENTANYL 75 MCG/HR 72 HR TRANSDERM PATCH","",7.2,0.075,1
230,"FENTANYL 75 MCG/HR TRANSDERM PATCH","",7.2,0.075,1
231,"FENTANYL 800 MCG BUCCAL TAB, EFFERVESCENT","",0.13,0.8,1
232,"FENTANYL 800 MCG LOZENGE ON A HANDLE","",0.13,0.8,1
233,"FENTANYL 800 MCG SUBLINGUAL TAB","",0.13,0.8,1
234,"FENTANYL CITRATE (BULK) 100 % POWDER","",0.13,,1
235,"FENTANYL CITRATE (BULK) MISC","",0.13,,1
236,"FENTANYL CITRATE VIAL 0.05MG/ML IJ","",0.13,0.05,1
1305,"HYDROMORPHONE 2 MG/ML IN 0.9 % SODIUM CHLORIDE INTRAVENOUS","",20,2,1
238,"FENTANYL TD","",7.2,,1
1306,"DILAUDID (PF) 2 MG/ML INJECTION SYRINGE (HYDROMORPHONE HCL/PF)","",20,2,1
1307,"MORPHINE 15 MG TABLET, CRUSH RESISTANT, EXTENDED RELEASE","",1,15,1
241,"FENTORA 100 MCG BUCCAL TAB, EFFERVESCENT (FENTANYL CITRATE)","",0.13,0.1,1
242,"FENTORA 200 MCG BUCCAL TAB, EFFERVESCENT (FENTANYL CITRATE)","",0.13,0.2,1
243,"FENTORA 400 MCG BUCCAL TAB, EFFERVESCENT (FENTANYL CITRATE)","",0.13,0.4,1
244,"FENTORA 600 MCG BUCCAL TAB, EFFERVESCENT (FENTANYL CITRATE)","",0.13,0.6,1
245,"FENTORA 800 MCG BUCCAL TAB, EFFERVESCENT (FENTANYL CITRATE)","",0.13,0.8,1
246,"ANEXSIA 5 MG-325 MG TAB (HYDROCODONE BIT/ACETAMINOPHEN)","",1,5,1
247,"ANEXSIA 7.5 MG-325 MG TAB (HYDROCODONE BIT/ACETAMINOPHEN)","",1,7.5,1
248,"ASPIRIN-HYDROCODONE 500 MG-5 MG TAB (HYDROCODONE BIT/ASPIRIN)","",1,5,1
249,"ASPIRIN-HYDROCODONE ORAL","",1,,1
250,"CHLORPHEN-HYDROCODONE TANNATES ORAL","",1,,1
251,"CHLORPHENIRAMINE 4 MG-HYDROCODONE 5 MG/5 ML ORAL SOLUTION (HYDROCODONE BIT/CHLOR-MAL)","",1,1,1
252,"CHLORPHENIRAMINE-HYDROCODONE 2 MG-2.5 MG/5 ML ORAL LIQUID (HYDROCODONE BIT/CHLOR-MAL)","",1,0.5,1
253,"CHLORPHENIRAMINE-HYDROCODONE ER 8 MG-10 MG 12 HR CAP,EXTENDED RELEASE (HYDROCODONE/CHLORPHEN POLIS)","",1,10,1
254,"CHLORPHENIRAMINE-HYDROCODONE ER 8 MG-10 MG/5 ML ORAL SUSP EXT.REL 12HR (HYDROCODONE/CHLORPHEN POLIS)","",1,2,1
255,"CHLORPHENIRAMINE-HYDROCODONE ORAL","",1,,1
256,"CHLORPHENIRAMINE-HYDROCODONE SR 4MG-5MG 12 HR CAP (HYDROCODONE/CHLORPHEN POLIS)","",1,5,1
257,"CHLORPHENIRAMINE-HYDROCODONE SR 8 MG-10 MG 12 HR CAP (HYDROCODONE/CHLORPHEN POLIS)","",1,10,1
258,"CHLORPHENIRAMINE-HYDROCODONE SR 8 MG-10 MG/5 ML ORAL 12 HR SUSP (HYDROCODONE/CHLORPHEN POLIS)","",1,2,1
259,"CHLORPHENIRAMINE-HYDROCODONE SR ORAL 12 HR SUSP (HYDROCODONE/CHLORPHEN POLIS)","",1,,1
260,"CHLORPHEN-PHENYLEPH-HYDROCODON 2 MG-10 MG-5 MG/5 ML SYRUP (PHENYLEPHRINE/HYDROCODONE/CP)","",1,1,1
261,"CHLORPHEN-PHENYLEPH-HYDROCODON 2 MG-5 MG-5 MG/5 ML ORAL LIQUID (PHENYLEPHRINE/HYDROCODONE/CP)","",1,1,1
262,"CHLORPHEN-PHENYLEPH-HYDROCODON 2 MG-5 MG-5 MG/5 ML SYRUP (PHENYLEPHRINE/HYDROCODONE/CP)","",1,1,1
263,"CO-GESIC 5 MG-500 MG TAB (HYDROCODONE BIT/ACETAMINOPHEN)","",1,5,1
264,"COUGHTUSS 2 MG-5 MG-5 MG/5 ML ORAL LIQUID (PHENYLEPHRINE/HYDROCODONE/CP)","",1,1,1
265,"CYTUSS HC 2 MG-5 MG-2.5 MG/5 ML SYRUP (PHENYLEPHRINE/HYDROCODONE/CP)","",1,1,1
266,"DIPHENHYDRAMINE-PE-HYDROCODONE ORAL","",1,,1
267,"EXTENDRYL HC 10 MG-1,000 MG 12 HR TAB (GUAIFENESIN/HYDROCODONE BIT)","",1,10,1
268,"H-C TUSSIVE 2 MG-5 MG-2.5 MG/5 ML SYRUP (PHENYLEPHRINE/HYDROCODONE/CP)","",1,1,1
269,"HISTINEX HC 2 MG-5 MG-2.5 MG/5 ML SYRUP (PHENYLEPHRINE/HYDROCODONE/CP)","",1,1,1
270,"HISTINEX PV 2 MG-30 MG-2.5 MG/5 ML SYRUP (P-EPHED HCL/HYDROCODONE/CP)","",1,0.5,1
271,"HISTUSSIN HC 1 MG-5 MG-2.5 MG/5 ML ORAL LIQUID (PE/HYDROCODONE/DEXBROMPHENIRMN)","",1,0.5,1
272,"HISTUSSIN HC 2 MG-5 MG-2.5 MG/5 ML SYRUP (PHENYLEPHRINE/HYDROCODONE/CP)","",1,0.5,1
273,"HYCET 7.5 MG-325 MG/15 ML ORAL SOLN (HYDROCODONE BIT/ACETAMINOPHEN)","",1,0.5,1
274,"HYCODAN 5 MG-1.5 MG TAB (HYDROCODONE BIT/HOMATROPINE)","",1,5,1
275,"HYCODAN 5 MG-1.5 MG/5 ML SYRUP (HYDROCODONE BIT/HOMATROPINE)","",1,1,1
276,"HYCOSIN EXPECTORANT 5 MG-100 MG/5 ML SYRUP (GUAIFENESIN/HYDROCODONE BIT)","",1,1,1
277,"HYCOTUSS EXPECTORANT 5 MG-100 MG/5 ML SYRUP (GUAIFENESIN/HYDROCODONE BIT)","",1,1,1
278,"HYDROCET 5 MG-500 MG CAP (HYDROCODONE BIT/ACETAMINOPHEN)","",1,5,1
279,"HYDROCODONE 2.5 MG-GUAIFENESIN 200 MG/5 ML ORAL SOLUTION (GUAIFENESIN/HYDROCODONE)","",1,0.5,1
280,"HYDROCODONE BIT/ACET 5/500","",1,5,1
281,"HYDROCODONE BITARTRATE (BULK) CRYSTALS","",1,,1
282,"HYDROCODONE BITARTRATE (BULK) MISC","",1,,1
283,"HYDROCODONE BITARTRATE ER 10 MG CAPSULE,EXTENDED RELEASE 12 HR","",1,10,1
284,"HYDROCODONE BITARTRATE ER 40 MG CAPSULE,EXTENDED RELEASE 12 HR","",1,40,1
285,"HYDROCODONE BITARTRATE ORAL","",1,,1
286,"HYDROCODONE COMPOUND 5 MG-1.5 MG/5 ML SYRUP","",1,1,1
287,"HYDROCODONE COMPOUND ORAL","",1,,1
288,"HYDROCODONE CP 2 MG-5 MG-2.5 MG/5 ML SYRUP (PHENYLEPHRINE/HYDROCODONE/CP)","",1,1,1
289,"HYDROCODONE GF 5 MG-100 MG/5 ML SYRUP (GUAIFENESIN/HYDROCODONE BIT)","",1,1,1
290,"HYDROCODONE HD 2 MG-5 MG-1.67 MG/5 ML SYRUP (PHENYLEPHRINE/HYDROCODONE/CP)","",1,1,1
291,"HYDROCODONE SYRUP PO","",1,,1
292,"HYDROCODONE W/ACETAMINOPHEN HS TABLET 2.5-500MG PO","",1,2.5,1
293,"HYDROCODONE W/ACETAMINOPHEN TABLET 5MG-325MG PO","",1,5,1
294,"HYDROCODONE W-ACETAMINOPHEN TABLET 7.5-500MG PO","",1,7.5,1
295,"HYDROCODONE/ACETAMINOPHEN TABLET 10-325MG PO (HYDROCODONE BIT/ACETAMINOPHEN)","",1,10,1
296,"HYDROCODONE/ACETAMINOPHEN TABLET 10-500MG PO (HYDROCODONE BIT/ACETAMINOPHEN)","",1,10,1
297,"HYDROCODONE/ACETAMINOPHEN TABLET 10-660MG PO (HYDROCODONE BIT/ACETAMINOPHEN)","",1,10,1
298,"HYDROCODONE/ACETAMINOPHEN TABLET 5-500MG PO (HYDROCODONE BIT/ACETAMINOPHEN)","",1,5,1
299,"HYDROCODONE-ACETAMINOPHEN 10 MG-250 MG TAB (HYDROCODONE BIT/ACETAMINOPHEN)","",1,10,1
300,"HYDROCODONE-ACETAMINOPHEN 10 MG-250 MG TABLET (HYDROCODONE BIT/ACETAMINOPHEN)","",1,10,1
301,"HYDROCODONE-ACETAMINOPHEN 10 MG-300 MG TAB (HYDROCODONE BIT/ACETAMINOPHEN)","",1,10,1
302,"HYDROCODONE-ACETAMINOPHEN 10 MG-300 MG TABLET (HYDROCODONE BIT/ACETAMINOPHEN)","",1,10,1
303,"HYDROCODONE-ACETAMINOPHEN 10 MG-300 MG/15 ML ORAL SOLN (HYDROCODONE BIT/ACETAMINOPHEN)","",1,0.67,1
304,"HYDROCODONE-ACETAMINOPHEN 10 MG-325 MG TAB (HYDROCODONE BIT/ACETAMINOPHEN)","",1,10,1
305,"HYDROCODONE-ACETAMINOPHEN 10 MG-325 MG TABLET (HYDROCODONE BIT/ACETAMINOPHEN)","",1,10,1
306,"HYDROCODONE-ACETAMINOPHEN 10 MG-325 MG/15 ML (15 ML) ORAL SOLN (HYDROCODONE BIT/ACETAMINOPHEN)","",1,0.67,1
453,"DILAUDID 4 MG TAB (HYDROMORPHONE HCL)","",4,4,1
307,"HYDROCODONE-ACETAMINOPHEN 10 MG-325 MG/15 ML ORAL SOLN (HYDROCODONE BIT/ACETAMINOPHEN)","",1,0.67,1
308,"HYDROCODONE-ACETAMINOPHEN 10 MG-400 MG TABLET (HYDROCODONE BIT/ACETAMINOPHEN)","",1,10,1
309,"HYDROCODONE-ACETAMINOPHEN 10 MG-500 MG TAB (HYDROCODONE BIT/ACETAMINOPHEN)","",1,10,1
310,"HYDROCODONE-ACETAMINOPHEN 10 MG-500 MG TABLET (HYDROCODONE BIT/ACETAMINOPHEN)","",1,10,1
311,"HYDROCODONE-ACETAMINOPHEN 10 MG-660 MG TAB (HYDROCODONE BIT/ACETAMINOPHEN)","",1,10,1
312,"HYDROCODONE-ACETAMINOPHEN 10 MG-660 MG TABLET (HYDROCODONE BIT/ACETAMINOPHEN)","",1,10,1
313,"HYDROCODONE-ACETAMINOPHEN 10 MG-750 MG TAB (HYDROCODONE BIT/ACETAMINOPHEN)","",1,10,1
314,"HYDROCODONE-ACETAMINOPHEN 10 MG-750 MG TABLET (HYDROCODONE BIT/ACETAMINOPHEN)","",1,10,1
315,"HYDROCODONE-ACETAMINOPHEN 10-650 MG TAB (HYDROCODONE BIT/ACETAMINOPHEN)","",1,10,1
316,"HYDROCODONE-ACETAMINOPHEN 10-650 MG TABLET (HYDROCODONE BIT/ACETAMINOPHEN)","",1,10,1
317,"HYDROCODONE-ACETAMINOPHEN 2.5 MG-167 MG/5 ML ELIXIR (HYDROCODONE BIT/ACETAMINOPHEN)","",1,0.5,1
318,"HYDROCODONE-ACETAMINOPHEN 2.5 MG-167 MG/5 ML ORAL SOLN (HYDROCODONE BIT/ACETAMINOPHEN)","",1,0.5,1
319,"HYDROCODONE-ACETAMINOPHEN 2.5 MG-325 MG TAB (HYDROCODONE BIT/ACETAMINOPHEN)","",1,2.5,1
320,"HYDROCODONE-ACETAMINOPHEN 2.5 MG-325 MG TABLET (HYDROCODONE BIT/ACETAMINOPHEN)","",1,2.5,1
321,"HYDROCODONE-ACETAMINOPHEN 2.5 MG-500 MG TAB (HYDROCODONE BIT/ACETAMINOPHEN)","",1,2.5,1
322,"HYDROCODONE-ACETAMINOPHEN 2.5 MG-500 MG TABLET (HYDROCODONE BIT/ACETAMINOPHEN)","",1,2.5,1
323,"HYDROCODONE-ACETAMINOPHEN 5 MG-163 MG/7.5 ML (7.5 ML) ORAL SOLN (HYDROCODONE BIT/ACETAMINOPHEN)","",1,0.67,1
324,"HYDROCODONE-ACETAMINOPHEN 5 MG-300 MG TAB (HYDROCODONE BIT/ACETAMINOPHEN)","",1,5,1
325,"HYDROCODONE-ACETAMINOPHEN 5 MG-300 MG TABLET (HYDROCODONE BIT/ACETAMINOPHEN)","",1,5,1
326,"HYDROCODONE-ACETAMINOPHEN 5 MG-325 MG TAB (HYDROCODONE BIT/ACETAMINOPHEN)","",1,5,1
327,"HYDROCODONE-ACETAMINOPHEN 5 MG-325 MG TABLET (HYDROCODONE BIT/ACETAMINOPHEN)","",1,5,1
328,"HYDROCODONE-ACETAMINOPHEN 5 MG-333 MG/10 ML ORAL SOLN (HYDROCODONE BIT/ACETAMINOPHEN)","",1,0.5,1
329,"HYDROCODONE-ACETAMINOPHEN 5 MG-400 MG TAB (HYDROCODONE BIT/ACETAMINOPHEN)","",1,5,1
330,"HYDROCODONE-ACETAMINOPHEN 5 MG-500 MG CAP (HYDROCODONE BIT/ACETAMINOPHEN)","",1,5,1
331,"HYDROCODONE-ACETAMINOPHEN 5 MG-500 MG CAPSULE (HYDROCODONE BIT/ACETAMINOPHEN)","",1,5,1
332,"HYDROCODONE-ACETAMINOPHEN 5 MG-500 MG TAB (HYDROCODONE BIT/ACETAMINOPHEN)","",1,5,1
333,"HYDROCODONE-ACETAMINOPHEN 5 MG-500 MG TABLET (HYDROCODONE BIT/ACETAMINOPHEN)","",1,5,1
334,"HYDROCODONE-ACETAMINOPHEN 7.5 MG-300 MG TAB (HYDROCODONE BIT/ACETAMINOPHEN)","",1,7.5,1
335,"HYDROCODONE-ACETAMINOPHEN 7.5 MG-300 MG TABLET (HYDROCODONE BIT/ACETAMINOPHEN)","",1,7.5,1
336,"HYDROCODONE-ACETAMINOPHEN 7.5 MG-325 MG TAB (HYDROCODONE BIT/ACETAMINOPHEN)","",1,7.5,1
337,"HYDROCODONE-ACETAMINOPHEN 7.5 MG-325 MG TABLET (HYDROCODONE BIT/ACETAMINOPHEN)","",1,7.5,1
338,"HYDROCODONE-ACETAMINOPHEN 7.5 MG-325 MG/15 ML (15 ML) ORAL SOLN (HYDROCODONE BIT/ACETAMINOPHEN)","",1,0.5,1
339,"HYDROCODONE-ACETAMINOPHEN 7.5 MG-325 MG/15 ML ORAL SOLN (HYDROCODONE BIT/ACETAMINOPHEN)","",1,0.5,1
340,"HYDROCODONE-ACETAMINOPHEN 7.5 MG-400 MG TAB (HYDROCODONE BIT/ACETAMINOPHEN)","",1,7.5,1
341,"HYDROCODONE-ACETAMINOPHEN 7.5 MG-500 MG TAB (HYDROCODONE BIT/ACETAMINOPHEN)","",1,7.5,1
342,"HYDROCODONE-ACETAMINOPHEN 7.5 MG-500 MG TABLET (HYDROCODONE BIT/ACETAMINOPHEN)","",1,7.5,1
343,"HYDROCODONE-ACETAMINOPHEN 7.5 MG-500 MG/15 ML (15 ML) ORAL SOLN (HYDROCODONE BIT/ACETAMINOPHEN)","",1,0.5,1
344,"HYDROCODONE-ACETAMINOPHEN 7.5 MG-500 MG/15 ML ORAL SOLN (HYDROCODONE BIT/ACETAMINOPHEN)","",1,0.5,1
345,"HYDROCODONE-ACETAMINOPHEN 7.5 MG-650 MG TAB (HYDROCODONE BIT/ACETAMINOPHEN)","",1,7.5,1
346,"HYDROCODONE-ACETAMINOPHEN 7.5 MG-650 MG TABLET (HYDROCODONE BIT/ACETAMINOPHEN)","",1,7.5,1
347,"HYDROCODONE-ACETAMINOPHEN 7.5 MG-750 MG TAB (HYDROCODONE BIT/ACETAMINOPHEN)","",1,7.5,1
348,"HYDROCODONE-ACETAMINOPHEN 7.5 MG-750 MG TABLET (HYDROCODONE BIT/ACETAMINOPHEN)","",1,7.5,1
349,"HYDROCODONE-ACETAMINOPHEN ORAL","",1,,1
350,"HYDROCODONE-ACETAMINOPHEN TABLET 10-500MG PO (HYDROCODONE BIT/ACETAMINOPHEN)","",1,10,1
351,"HYDROCODONE-ACETAMINOPHEN TABLET 10-650MG PO (HYDROCODONE BIT/ACETAMINOPHEN)","",1,10,1
352,"HYDROCODONE-ACETAMINOPHEN TABLET 10-660MG PO (HYDROCODONE BIT/ACETAMINOPHEN)","",1,10,1
353,"HYDROCODONE-ACETAMINOPHEN TABLET 5-500MG PO (HYDROCODONE BIT/ACETAMINOPHEN)","",1,5,1
354,"HYDROCODONE-ACETAMINOPHEN TABLET 7.5-500MG PO (HYDROCODONE BIT/ACETAMINOPHEN)","",1,7.5,1
355,"HYDROCODONE-ACETAMINOPHEN TABLET 7.5-750MG PO (HYDROCODONE BIT/ACETAMINOPHEN)","",1,7.5,1
356,"HYDROCODONE-ACETAMINOPH-SUPP11 ORAL","",1,,1
357,"HYDROCODONE-CPM-PE-ACETAMINOPHEN TAB (PHENYLEPH/HYDOCODON/ACETAMN/CP)","",1,,1
360,"HYDROCODONE-GUAIFENESIN 2.5 MG-300 MG TAB (GUAIFENESIN/HYDROCODONE BIT)","",1,2.5,1
366,"HYDROCODONE-GUAIFENESIN 5 MG-300 MG TAB (GUAIFENESIN/HYDROCODONE BIT)","",1,5,1
367,"HYDROCODONE-GUAIFENESIN ORAL","",1,,1
368,"HYDROCODONE-HOMATROPINE 5 MG-1.5 MG TAB (HYDROCODONE BIT/HOMATROPINE)","",1,5,1
369,"HYDROCODONE-HOMATROPINE 5 MG-1.5 MG TABLET (HYDROCODONE BIT/HOMATROP ME-BR)","",1,5,1
370,"HYDROCODONE-HOMATROPINE 5 MG-1.5 MG/5 ML (5 ML) SYRUP (HYDROCODONE BIT/HOMATROP ME-BR)","",1,1,1
371,"HYDROCODONE-HOMATROPINE 5 MG-1.5 MG/5 ML ORAL SYRINGE (HYDROCODONE BIT/HOMATROP ME-BR)","",1,1,1
372,"HYDROCODONE-HOMATROPINE 5 MG-1.5 MG/5 ML SYRUP (HYDROCODONE BIT/HOMATROP ME-BR)","",1,1,1
362,"HYDROCODONE-GUAIFENESIN 3.5 MG-100 MG/5 ML SYRUP (GUAIFENESIN/HYDROCODONE BIT)","",1,3.5,1
363,"HYDROCODONE-GUAIFENESIN 3.5 MG-300 MG/5 ML ORAL LIQUID (GUAIFENESIN/HYDROCODONE BIT)","",1,3.5,1
364,"HYDROCODONE-GUAIFENESIN 5 MG-100 MG/5 ML ORAL LIQUID (GUAIFENESIN/HYDROCODONE BIT)","",1,5,1
361,"HYDROCODONE-GUAIFENESIN 3 MG-90 MG/5 ML SYRUP (GUAIFENESIN/HYDROCODONE BIT)","",1,3,1
373,"HYDROCODONE-HOMATROPINE 5 MG-1.5 MG/5 ML SYRUP (HYDROCODONE BIT/HOMATROPINE)","",1,1,1
374,"HYDROCODONE-HOMATROPINE ORAL","",1,,1
375,"HYDROCODONE-HOMATROPINE SYRUP (HYDROCODONE BIT/HOMATROPINE)","",1,,1
376,"HYDROCODONE-IBUPROFEN 10 MG-200 MG TAB (HYDROCODONE/IBUPROFEN)","",1,10,1
377,"HYDROCODONE-IBUPROFEN 5 MG-200 MG TAB (HYDROCODONE/IBUPROFEN)","",1,5,1
378,"HYDROCODONE-IBUPROFEN 7.5 MG-200 MG TAB (HYDROCODONE/IBUPROFEN)","",1,7.5,1
379,"HYDROCODONE-IBUPROFEN 7.5 MG-200 MG TABLET (HYDROCODONE/IBUPROFEN)","",1,7.5,1
380,"HYDROCODONE-IBUPROFEN ORAL","",1,,1
381,"HYDROMET 5 MG-1.5 MG/5 ML SYRUP (HYDROCODONE BIT/HOMATROP ME-BR)","",1,1,1
382,"HYDROMET 5 MG-1.5 MG/5 ML SYRUP (HYDROCODONE BIT/HOMATROPINE)","",1,1,1
383,"HYDROMIDE 5 MG-1.5 MG/5 ML SYRUP (HYDROCODONE BIT/HOMATROPINE)","",1,1,1
384,"HYDRO-TUSS 5 MG-100 MG/5 ML SYRUP (GUAIFENESIN/HYDROCODONE BIT)","",1,1,1
385,"HYDRO-TUSSIN HG 3.5 MG-100 MG/5 ML SYRUP (GUAIFENESIN/HYDROCODONE BIT)","",1,1,1
386,"HYTAN 5 MG-4 MG/5 ML ORAL SUSP (HYDROCODONE TANNATE/CHLOR-TAN)","",1,1,1
387,"IBUDONE 10 MG-200 MG TAB (HYDROCODONE/IBUPROFEN)","",1,10,1
388,"KWELCOF 5 MG-100 MG/5 ML SYRUP (GUAIFENESIN/HYDROCODONE BIT)","",1,1,1
389,"LORCET (HYDROCODONE) ORAL","",1,,1
390,"LORCET 10/650 10-650 MG TAB (HYDROCODONE BIT/ACETAMINOPHEN)","",1,10,1
391,"LORCET HD ORAL","",1,,1
392,"LORCET-HD 5 MG-500 MG CAP (HYDROCODONE BIT/ACETAMINOPHEN)","",1,5,1
393,"LORTAB 10/500 10 MG-500 MG TAB (HYDROCODONE BIT/ACETAMINOPHEN)","",1,10,1
394,"LORTAB 2.5 2.5 MG-500 MG TAB (HYDROCODONE BIT/ACETAMINOPHEN)","",1,2.5,1
395,"LORTAB 5 MG-500 MG TAB (HYDROCODONE BIT/ACETAMINOPHEN)","",1,5,1
396,"LORTAB 7.5 7.5 MG-500 MG TAB (HYDROCODONE BIT/ACETAMINOPHEN)","",1,7.5,1
397,"LORTAB 7.5 MG-500 MG TAB (HYDROCODONE BIT/ACETAMINOPHEN)","",1,7.5,1
398,"LORTAB ELIXIR 7.5 MG-500 MG/15 ML ORAL SOLN (HYDROCODONE BIT/ACETAMINOPHEN)","",1,0.5,1
399,"LORTAB ELIXIR ORAL","",1,,1
400,"LORTAB ORAL","",1,,1
401,"NORCO 10 MG-325 MG TAB (HYDROCODONE BIT/ACETAMINOPHEN)","",1,10,1
402,"NORCO 10 MG-325 MG TABLET (HYDROCODONE BIT/ACETAMINOPHEN)","",1,10,1
403,"NORCO 5 MG-325 MG TAB (HYDROCODONE BIT/ACETAMINOPHEN)","",1,5,1
404,"NORCO 7.5 MG-325 MG TAB (HYDROCODONE BIT/ACETAMINOPHEN)","",1,7.5,1
405,"NORCO ORAL","",1,,1
406,"PHENYLEPHRINE-HYDROCODONE-GUAIF 10 MG-2 MG-100 MG/5 ML SYRUP (GUAIFENESIN/PHENYLEPHRINE/HCOD)","",1,0.4,1
407,"PHENYLPROPANOLAMIN-HYDROCODONE 12.5 MG-2.5 MG/5 ML SYRUP (PPA HCL/HYDROCODONE BIT)","",1,0.5,1
408,"PSEUDOEPH-HYDROCODONE-GG 30 MG-2.5 MG-100 MG/5 ML ELIXIR (GUAIFENESIN/P-EPHED HCL/HCOD)","",1,0.5,1
409,"PSEUDOEPH-HYDROCODONE-GG ORAL","",1,,1
410,"P-V TUSSIN 2 MG-30 MG-2.5 MG/5 ML SYRUP (P-EPHED HCL/HYDROCODONE/CP)","",1,6,1
411,"REPREXAIN 5 MG-200 MG TAB (HYDROCODONE/IBUPROFEN)","",1,5,1
412,"REPREXAIN 7.5 MG-200 MG TAB (HYDROCODONE/IBUPROFEN)","",1,7.5,1
413,"S-T FORTE 2 2 MG-2.5 MG/5 ML ORAL LIQUID (HYDROCODONE BIT/CHLOR-MAL)","",1,0.4,1
414,"STAGESIC 5 MG-500 MG CAP (HYDROCODONE BIT/ACETAMINOPHEN)","",1,5,1
415,"STAGESIC-10 10 MG-250 MG TAB (HYDROCODONE BIT/ACETAMINOPHEN)","",1,10,1
416,"TOURO HC 5 MG-575 MG 12 HR TAB (GUAIFENESIN/HYDROCODONE BIT)","",1,5,1
417,"TRIANT-HC 2 MG-5 MG-1.67 MG/5 ML ORAL LIQUID (PHENYLEPHRINE/HYDROCODONE/CP)","",1,1,1
418,"TUSSEND 2 MG-30 MG-2.5 MG/5 ML SYRUP (P-EPHED HCL/HYDROCODONE/CP)","",1,6,1
419,"TUSSICAPS 4MG-5MG 12 HR CAP (HYDROCODONE/CHLORPHEN POLIS)","",1,4,1
420,"TUSSICAPS 8 MG-10 MG 12 HR CAP (HYDROCODONE/CHLORPHEN POLIS)","",1,8,1
421,"TUSSIGON 5 MG-1.5 MG TAB (HYDROCODONE BIT/HOMATROPINE)","",1,5,1
422,"TUSSINAL 12 2 MG-10 MG-6 MG ORAL SUSP (PE/HYDROCODONE/DEXCHLOR TANNTS)","",1,10,1
423,"TUSSIONEX PENNKINETIC ER 8 MG-10 MG/5 ML ORAL 12 HR SUSP (HYDROCODONE/CHLORPHEN POLIS)","",1,2,1
424,"TUSSIONEX PENNKINETIC ER 8 MG-10 MG/5 ML SUSP,EXTENDED RELEASE (HYDROCODONE/CHLORPHEN POLIS)","",1,2,1
425,"TUSSIVE HC SYRUP 5-2.5-2 PO (PHENYLEPHRINE/HYDROCODONE/CP)","",1,2.5,1
426,"TUSSO-DF 2.5 MG-100 MG/5 ML SYRUP (GUAIFENESIN/HYDROCODONE BIT)","",1,0.5,1
427,"TUSSPLEX 12 MG-5 MG-6 MG/5 ML ORAL LIQUID (PHENYLEPHRINE/HYDROCODONE/PYR)","",1,1,1
428,"VICOCLEAR 5 MG-100 MG/5 ML SYRUP (GUAIFENESIN/HYDROCODONE BIT)","",1,1,1
429,"VICODIN 5 MG-300 MG TABLET (HYDROCODONE BIT/ACETAMINOPHEN)","",1,5,1
430,"VICODIN 5 MG-500 MG TAB (HYDROCODONE BIT/ACETAMINOPHEN)","",1,5,1
431,"VICODIN 5 MG-500 MG TABLET (HYDROCODONE BIT/ACETAMINOPHEN)","",1,5,1
432,"VICODIN ES 7.5 MG-300 MG TABLET (HYDROCODONE BIT/ACETAMINOPHEN)","",1,7.5,1
433,"VICODIN ES 7.5 MG-750 MG TAB (HYDROCODONE BIT/ACETAMINOPHEN)","",1,7.5,1
434,"VICODIN ES ORAL","",1,,1
435,"VICODIN HP 10 MG-300 MG TABLET (HYDROCODONE BIT/ACETAMINOPHEN)","",1,10,1
436,"VICODIN HP 10 MG-660 MG TAB (HYDROCODONE BIT/ACETAMINOPHEN)","",1,10,1
437,"VICODIN HP ORAL","",1,,1
438,"VICODIN ORAL","",1,,1
439,"VICODIN TUSS 5 MG-100 MG/5 ML SYRUP (GUAIFENESIN/HYDROCODONE BIT)","",1,1,1
440,"VICOPROFEN 7.5 MG-200 MG TAB (HYDROCODONE/IBUPROFEN)","",1,7.5,1
441,"VICOPROFEN 7.5 MG-200 MG TABLET (HYDROCODONE/IBUPROFEN)","",1,7.5,1
442,"VICOPROFEN ORAL","",1,,1
443,"VI-Q-TUSS 5 MG-100 MG/5 ML SYRUP (GUAIFENESIN/HYDROCODONE BIT)","",1,20,1
444,"XODOL 10/300 10 MG-300 MG TAB (HYDROCODONE BIT/ACETAMINOPHEN)","",1,10,1
445,"DILAUDID (PF) 2 MG/ML INJECTION (HYDROMORPHONE HCL/PF)","",20,2,1
446,"DILAUDID (PF) INJ","",20,,1
447,"DILAUDID 1 MG/ML INJECTION (HYDROMORPHONE HCL/PF)","",20,1,1
448,"DILAUDID 1 MG/ML ORAL LIQUID (HYDROMORPHONE HCL)","",4,1,1
449,"DILAUDID 2 MG TAB (HYDROMORPHONE HCL)","",4,2,1
450,"DILAUDID 2 MG TABLET (HYDROMORPHONE HCL)","",4,2,1
451,"DILAUDID 2 MG/ML INJECTION (HYDROMORPHONE HCL/PF)","",20,2,1
452,"DILAUDID 3 MG RECTAL SUPPOSITORY (HYDROMORPHONE HCL)","",4,3,1
454,"DILAUDID 4 MG TABLET (HYDROMORPHONE HCL)","",4,4,1
455,"DILAUDID 4 MG/ML INJECTION (HYDROMORPHONE HCL/PF)","",20,4,1
456,"DILAUDID 8 MG TAB (HYDROMORPHONE HCL)","",4,8,1
457,"DILAUDID INJ","",20,,1
459,"DILAUDID ORAL","",4,,1
460,"DILAUDID TAB 4MG","",4,4,1
461,"DILAUDID VIAL 2MG/ML IJ (HYDROMORPHONE HCL)","",20,2,1
462,"DILAUDID-5 1 MG/ML ORAL LIQUID (HYDROMORPHONE HCL)","",4,1,1
463,"DILAUDID-5 ORAL","",4,,1
464,"DILAUDID-HP 250 MG SOLUTION FOR INJECTION (HYDROMORPHONE HCL/PF)","",20,250,1
465,"DILAUDID-HP VIAL 10MG/ML IJ (HYDROMORPHONE HCL)","",20,10,1
466,"EXALGO ER 12 MG 24 HR TAB (HYDROMORPHONE HCL)","",4,12,1
467,"EXALGO ER 12 MG TABLET,EXTENDED RELEASE (HYDROMORPHONE HCL)","",4,12,1
468,"EXALGO ER 16 MG 24 HR TAB (HYDROMORPHONE HCL)","",4,16,1
469,"EXALGO ER 32 MG TABLET,EXTENDED RELEASE (HYDROMORPHONE HCL)","",4,32,1
470,"EXALGO ER 8 MG 24 HR TAB (HYDROMORPHONE HCL)","",4,8,1
471,"EXALGO ER 8 MG TABLET,EXTENDED RELEASE (HYDROMORPHONE HCL)","",4,8,1
472,"HYDROMORPHONE (BULK) MISC","",,,1
473,"HYDROMORPHONE (PF) 1 MG/ML INJECTION","",20,1,1
474,"HYDROMORPHONE (PF) 1 MG/ML SYRINGE","",20,1,1
475,"HYDROMORPHONE (PF) 10 MG/ML INJECTION","",20,10,1
476,"HYDROMORPHONE (PF) 2 MG/ML INJECTION","",20,2,1
477,"HYDROMORPHONE (PF) 2 MG/ML SYRINGE","",20,2,1
478,"HYDROMORPHONE (PF) 250 MG SOLUTION FOR INJECTION","",20,250,1
479,"HYDROMORPHONE (PF) 4 MG/ML INJECTION","",20,4,1
480,"HYDROMORPHONE 0.2 MG/ML INJECTION","",20,0.2,1
481,"HYDROMORPHONE 1 MG/ML ORAL LIQUID","",4,1,1
482,"HYDROMORPHONE 1 MG/ML SYRINGE","",20,1,1
483,"HYDROMORPHONE 10 MG/ML INJECTION","",20,10,1
484,"HYDROMORPHONE 2 MG TAB","",4,2,1
485,"HYDROMORPHONE 2 MG TABLET","",4,2,1
486,"HYDROMORPHONE 2 MG/ML INJECTION","",20,2,1
487,"HYDROMORPHONE 2 MG/ML SYRINGE","",20,2,1
488,"HYDROMORPHONE 3 MG RECTAL SUPPOSITORY","",4,3,1
489,"HYDROMORPHONE 4 MG TAB","",4,4,1
490,"HYDROMORPHONE 4 MG TABLET","",4,4,1
491,"HYDROMORPHONE 8 MG TAB","",4,8,1
492,"HYDROMORPHONE 8 MG TABLET","",4,8,1
493,"HYDROMORPHONE ER 12 MG 24 HR TAB","",4,12,1
494,"HYDROMORPHONE ER 12 MG TABLET,EXTENDED RELEASE 24 HR","",4,12,1
495,"HYDROMORPHONE ER 16 MG 24 HR TAB","",4,16,1
496,"HYDROMORPHONE ER 32 MG TABLET,EXTENDED RELEASE 24 HR","",4,32,1
497,"HYDROMORPHONE ER 8 MG 24 HR TAB","",4,8,1
498,"HYDROMORPHONE ER 8 MG TABLET,EXTENDED RELEASE 24 HR","",4,8,1
499,"HYDROMORPHONE IN NS 0.5 MG/ML IV","",20,0.5,1
500,"HYDROMORPHONE IN NS 10 MG/50 ML PCA SYRINGE","",20,0.2,1
501,"HYDROMORPHONE IV","",20,,1
502,"HYDROMORPHONE ORAL","",4,,1
503,"HYDROMORPHONE SR 12 MG 24 HR CAP","",4,12,1
504,"HYDROMORPHONE-BUPIVACAINE IN NS (PF) 10 MCG/ML-0.0625 % EPIDURAL (HYDROMORPH HCL/BUPIV HCL/NS/PF (HYD36476))","",20,0.01,1
505,"HYDROMORPHONE-BUPIVACAINE IN NS (PF) 20 MCG/ML-0.125 % INJECTION (HYDROMORPH HCL/BUPIV HCL/NS/PF)","",20,0.02,1
506,"HYDROMORPHONE-GG 1 MG-100 MG/5 ML SYRUP (GUAIFENESIN/HYDROMORPHONE HCL)","",4,20,1
507,"LEVORPHANOL TARTRATE 2 MG TAB","",7.5,2,1
508,"LEVORPHANOL TARTRATE 2 MG TABLET","",7.5,2,1
509,"DEMEROL (PF) 100 MG/2 ML INJECTION (MEPERIDINE HCL/PF)","",0.3,50,1
510,"DEMEROL (PF) 100 MG/ML INJECTION (MEPERIDINE HCL/PF)","",0.3,100,1
511,"DEMEROL (PF) 100 MG/ML SYRINGE (MEPERIDINE HCL/PF)","",0.3,100,1
512,"DEMEROL (PF) 25 MG/0.5 ML INJECTION (MEPERIDINE HCL/PF)","",0.3,50,1
513,"DEMEROL (PF) 25 MG/ML SYRINGE (MEPERIDINE HCL/PF)","",0.3,25,1
514,"DEMEROL (PF) 50 MG/ML INJECTION (MEPERIDINE HCL/PF)","",0.3,50,1
515,"DEMEROL (PF) 50 MG/ML SYRINGE (MEPERIDINE HCL/PF)","",0.3,50,1
516,"DEMEROL (PF) 75 MG/1.5 ML INJECTION (MEPERIDINE HCL/PF)","",0.3,50,1
517,"DEMEROL (PF) 75 MG/ML SYRINGE (MEPERIDINE HCL/PF)","",0.3,75,1
518,"DEMEROL 100 MG TAB (MEPERIDINE HCL)","",0.1,100,1
519,"DEMEROL 100 MG/ML INJECTION (MEPERIDINE HCL)","",0.3,100,1
520,"DEMEROL 100 MG/ML SYRINGE (MEPERIDINE HCL)","",0.3,100,1
521,"DEMEROL 25 MG/ML SYRINGE (MEPERIDINE HCL)","",0.3,25,1
522,"DEMEROL 50 MG TAB (MEPERIDINE HCL)","",0.1,50,1
523,"DEMEROL 50 MG TABLET (MEPERIDINE HCL)","",0.1,50,1
524,"DEMEROL 50 MG/ML INJECTION (MEPERIDINE HCL)","",0.3,50,1
525,"DEMEROL 50 MG/ML SYRINGE (MEPERIDINE HCL)","",0.3,50,1
526,"DEMEROL 75 MG/ML SYRINGE (MEPERIDINE HCL)","",0.3,75,1
527,"DEMEROL ORAL","",0.1,,1
528,"MEPERIDINE (PF) 100 MG/2 ML INJECTION","",0.3,50,1
529,"MEPERIDINE (PF) 100 MG/ML INJECTION","",0.3,100,1
530,"MEPERIDINE (PF) 100 MG/ML SYRINGE","",0.3,100,1
531,"MEPERIDINE (PF) 25 MG/0.5 ML INJECTION","",0.3,50,1
532,"MEPERIDINE (PF) 25 MG/ML INJECTION","",0.3,25,1
533,"MEPERIDINE (PF) 25 MG/ML SYRINGE","",0.3,25,1
534,"MEPERIDINE (PF) 50 MG/ML INJECTION","",0.3,50,1
535,"MEPERIDINE (PF) 50 MG/ML SYRINGE","",0.3,50,1
536,"MEPERIDINE (PF) 75 MG/1.5 ML INJECTION","",0.3,50,1
537,"MEPERIDINE (PF) 75 MG/ML INJECTION","",0.3,75,1
538,"MEPERIDINE (PF) 75 MG/ML SYRINGE","",0.3,75,1
539,"MEPERIDINE 100 MG TAB","",0.1,100,1
540,"MEPERIDINE 100 MG TABLET","",0.1,100,1
541,"MEPERIDINE 100 MG/ML INJECTION","",0.3,100,1
542,"MEPERIDINE 100 MG/ML SYRINGE","",0.3,100,1
543,"MEPERIDINE 25 MG/ML SYRINGE","",0.3,25,1
544,"MEPERIDINE 50 MG TAB","",0.1,50,1
545,"MEPERIDINE 50 MG TABLET","",0.1,50,1
546,"MEPERIDINE 50 MG/5 ML ORAL SOLN","",0.1,10,1
547,"MEPERIDINE 50 MG/ML INJECTION","",0.3,50,1
1284,"DIAZEPAM (BULK) MISC","",0.2,,2
548,"MEPERIDINE 50 MG/ML SYRINGE","",0.3,50,1
549,"MEPERIDINE 75 MG/ML INJECTION","",0.3,75,1
550,"MEPERIDINE 75 MG/ML SYRINGE","",0.3,75,1
551,"MEPERIDINE ORAL","",0.1,,1
552,"MEPERIDINE-PROMETHAZINE 50 MG-25 MG CAP (MEPERIDINE HCL/PROMETH HCL)","",0.1,50,1
553,"MEPERITAB 100 MG TAB (MEPERIDINE HCL)","",0.1,100,1
554,"MEPERITAB 50 MG TAB (MEPERIDINE HCL)","",0.1,50,1
555,"MEPROZINE 50 MG-25 MG CAP (MEPERIDINE HCL/PROMETH HCL)","",0.1,50,1
556,"DISKETS 40 MG SOLUBLE TAB (METHADONE HCL)","",3,40,1
557,"DOLOPHINE 10 MG TAB (METHADONE HCL)","",3,10,1
558,"DOLOPHINE 5 MG TAB (METHADONE HCL)","",3,5,1
559,"DOLOPHINE ORAL","",3,,1
560,"METHADONE (BULK) 100 % POWDER","",,,1
561,"METHADONE (BULK) MISC","",,,1
562,"METHADONE 10 MG TAB","",3,10,1
563,"METHADONE 10 MG TABLET","",3,10,1
564,"METHADONE 10 MG/5 ML ORAL SOLN","",3,2,1
565,"METHADONE 10 MG/ML INJECTION","",6,10,1
566,"METHADONE 10 MG/ML IV SYRINGE","",6,10,1
567,"METHADONE 10 MG/ML ORAL CONCENTRATE","",3,10,1
568,"METHADONE 10 MG/ML ORAL SYRINGE","",3,10,1
569,"METHADONE 40 MG SOLUBLE TAB","",3,40,1
570,"METHADONE 40 MG SOLUBLE TABLET","",3,40,1
571,"METHADONE 5 MG TAB","",3,5,1
572,"METHADONE 5 MG TABLET","",3,5,1
573,"METHADONE 5 MG/5 ML ORAL SOLN","",3,1,1
574,"METHADONE 5 MG/5 ML ORAL SYRINGE","",3,1,1
575,"METHADONE HCL","",,,1
576,"METHADONE HCL ORAL CONC. 10MG/ML PO","",3,10,1
577,"METHADONE HYDROCHLORIDE TABLET SOL 40MG PO","",3,40,1
578,"METHADONE INJ","",6,,1
579,"METHADONE INTENSOL 10 MG/ML ORAL CONCENTRATE","",3,10,1
580,"METHADONE INTENSOL ORAL","",3,,1
581,"METHADONE ORAL","",3,,1
582,"METHADOSE 10 MG TAB (METHADONE HCL)","",3,10,1
583,"METHADOSE 10 MG/ML ORAL CONCENTRATE (METHADONE HCL)","",3,10,1
584,"METHADOSE 40 MG SOLUBLE TAB (METHADONE HCL)","",3,40,1
585,"METHADOSE 5 MG TAB (METHADONE HCL)","",3,5,1
586,"APOKYN 10 MG/ML SUBQ CARTRIDGE (APOMORPHINE HCL)","",3,10,1
587,"ASTRAMORPH-PF 0.5 MG/ML INJECTION (MORPHINE SULFATE/PF)","",3,0.5,1
588,"ASTRAMORPH-PF 1 MG/ML INJECTION (MORPHINE SULFATE/PF)","",3,1,1
589,"AVINZA 120 MG 24 HR CAP (MORPHINE SULFATE)","",1,120,1
590,"AVINZA 30 MG 24 HR CAP (MORPHINE SULFATE)","",1,30,1
591,"AVINZA 45 MG 24 HR CAP (MORPHINE SULFATE)","",1,45,1
592,"AVINZA 60 MG 24 HR CAP (MORPHINE SULFATE)","",1,60,1
593,"AVINZA 75 MG 24 HR CAP (MORPHINE SULFATE)","",1,75,1
594,"AVINZA 90 MG 24 HR CAP (MORPHINE SULFATE)","",1,90,1
595,"AVINZA 90 MG CAPSULE, EXTENDED RELEASE (MORPHINE SULFATE)","",1,90,1
596,"AVINZA CPMP 24HR 30MG PO (MORPHINE SULFATE)","",1,30,1
597,"AVINZA CPMP 24HR 60MG PO (MORPHINE SULFATE)","",1,60,1
598,"AVINZA CPMP 24HR 90MG PO (MORPHINE SULFATE)","",1,90,1
599,"AVINZA ORAL","",1,,1
600,"INFUMORPH P/F 25 MG/ML INJECTION (MORPHINE SULFATE/PF)","",3,25,1
601,"KADIAN 10 MG CAP (MORPHINE SULFATE)","",1,10,1
602,"KADIAN 100 MG CAP (MORPHINE SULFATE)","",1,100,1
603,"KADIAN 20 MG CAP (MORPHINE SULFATE)","",1,20,1
604,"KADIAN 20 MG CAPSULE,EXTENDED RELEASE (MORPHINE SULFATE)","",1,20,1
605,"KADIAN 200 MG CAP (MORPHINE SULFATE)","",1,200,1
606,"KADIAN 30 MG CAP (MORPHINE SULFATE)","",1,30,1
607,"KADIAN 50 MG CAP (MORPHINE SULFATE)","",1,50,1
608,"KADIAN 60 MG CAP (MORPHINE SULFATE)","",1,60,1
609,"KADIAN 80 MG CAP (MORPHINE SULFATE)","",1,80,1
610,"KADIAN ORAL","",1,,1
611,"MORPHINE (BULK) 100 % POWDER","",,,1
612,"MORPHINE (BULK) MISC","",,,1
613,"MORPHINE (PF) 0.5 MG/ML INJECTION","",3,0.5,1
614,"MORPHINE (PF) 1 MG/ML INJECTION","",3,1,1
615,"MORPHINE (PF) 10 MG/ML INJECTION","",3,10,1
616,"MORPHINE (PF) 10 MG/ML IV CARTRIDGE","",3,10,1
617,"MORPHINE (PF) 10 MG/ML SYRINGE","",3,10,1
618,"MORPHINE (PF) 15 MG/ML IV CARTRIDGE","",3,15,1
619,"MORPHINE (PF) 150 MG/30 ML PCA IV SOLN","",3,5,1
620,"MORPHINE (PF) 2 MG/ML INJECTION","",3,2,1
621,"MORPHINE (PF) 2 MG/ML IV CARTRIDGE","",3,2,1
622,"MORPHINE (PF) 250 MG/50 ML (5 MG/ML) IV PCA SYRINGE","",3,5,1
623,"MORPHINE (PF) 30 MG/30 ML (1 MG/ML) IV PCA SYRINGE","",3,1,1
624,"MORPHINE (PF) 30 MG/30 ML PCA IV SOLN","",3,1,1
625,"MORPHINE (PF) 4 MG/ML INJECTION","",3,4,1
626,"MORPHINE (PF) 4 MG/ML IV CARTRIDGE","",3,4,1
627,"MORPHINE (PF) 50 MG/ML INJECTION","",3,50,1
628,"MORPHINE (PF) 50 MG/ML SYRINGE","",3,50,1
629,"MORPHINE (PF) INJ","",3,,1
1324,"DILAUDID RECT","",4,,1
631,"MORPHINE 1 MG/ML INJECTION","",3,1,1
632,"MORPHINE 1 MG/ML SYRINGE","",3,1,1
633,"MORPHINE 10 MG CAP, SUST. RELEASE PELLETS","",1,10,1
634,"MORPHINE 10 MG HYPODERMIC TAB","",1,10,1
635,"MORPHINE 10 MG RECTAL SUPPOSITORY","",1,10,1
636,"MORPHINE 10 MG/5 ML ORAL SOLN","",1,2,1
637,"MORPHINE 10 MG/ML INJECTION","",3,10,1
638,"MORPHINE 10 MG/ML IV","",3,10,1
639,"MORPHINE 10 MG/ML SYRINGE","",3,10,1
640,"MORPHINE 100 MG CAP, SUST. RELEASE PELLETS","",1,100,1
641,"MORPHINE 100 MG/5 ML ORAL CONCENTRATE","",1,20,1
642,"MORPHINE 15 MG CAPSULE","",1,15,1
643,"MORPHINE 15 MG HYPODERMIC TAB","",1,15,1
644,"MORPHINE 15 MG TABLET","",1,15,1
645,"MORPHINE 15 MG/ML INJECTION","",3,15,1
646,"MORPHINE 15 MG/ML SYRINGE","",3,15,1
647,"MORPHINE 2 MG/ML INJECTION","",3,2,1
648,"MORPHINE 2 MG/ML SYRINGE","",3,2,1
649,"MORPHINE 20 MG CAP, SUST. RELEASE PELLETS","",1,20,1
650,"MORPHINE 20 MG/5 ML ORAL SOLN","",1,4,1
651,"MORPHINE 200 MG CAP, SUST. RELEASE PELLETS","",1,200,1
652,"MORPHINE 25 MG/ML IV","",3,25,1
653,"MORPHINE 25 MG/ML SYRINGE","",3,25,1
654,"MORPHINE 30 MG CAP, SUST. RELEASE PELLETS","",1,30,1
655,"MORPHINE 30 MG CAPSULE","",1,30,1
656,"MORPHINE 30 MG HYPODERMIC TAB","",1,30,1
657,"MORPHINE 30 MG SOLUBLE TAB","",1,30,1
658,"MORPHINE 30 MG TABLET","",1,30,1
659,"MORPHINE 4 MG/ML SYRINGE","",3,4,1
660,"MORPHINE 5 MG RECTAL SUPPOSITORY","",1,5,1
661,"MORPHINE 5 MG/ML INJECTION","",3,5,1
662,"MORPHINE 5 MG/ML SYRINGE","",3,5,1
663,"MORPHINE 50 MG CAP, SUST. RELEASE PELLETS","",1,50,1
664,"MORPHINE 50 MG/ML INJECTION","",3,50,1
665,"MORPHINE 50 MG/ML SYRINGE","",3,50,1
666,"MORPHINE 60 MG CAP, SUST. RELEASE PELLETS","",1,60,1
667,"MORPHINE 80 MG CAP, SUST. RELEASE PELLETS","",1,80,1
668,"MORPHINE CONCENTRATE 10 MG/0.5 ML ORAL","",1,20,1
669,"MORPHINE CONCENTRATE 100 MG/5 ML (20 MG/ML) ORAL","",1,20,1
670,"MORPHINE CONCENTRATE 20 MG/ML ORAL","",1,20,1
671,"MORPHINE CONCENTRATE 20 MG/ML ORAL SYRINGE","",1,20,1
672,"MORPHINE CONCENTRATE 30 MG/1.5 ML ORAL","",1,20,1
673,"MORPHINE CONCENTRATE 5 MG/0.25 ML ORAL","",1,20,1
674,"MORPHINE CONCENTRATE ORAL","",1,,1
675,"MORPHINE ER 100 MG CAPSULE,EXTENDED RELEASE PELLETS","",1,100,1
676,"MORPHINE ER 100 MG TABLET,EXTENDED RELEASE","",1,100,1
677,"MORPHINE ER 120 MG CAPSULE,EXT.RELEASE24HR MULTIPHASE","",1,120,1
678,"MORPHINE ER 15 MG TABLET,EXTENDED RELEASE","",1,15,1
679,"MORPHINE ER 150 MG CAPSULE,EXTENDED RELEASE PELLETS","",1,150,1
680,"MORPHINE ER 20 MG CAPSULE,EXTENDED RELEASE PELLETS","",1,20,1
681,"MORPHINE ER 200 MG TABLET,EXTENDED RELEASE","",1,200,1
682,"MORPHINE ER 30 MG CAPSULE,EXT.RELEASE24HR MULTIPHASE","",1,30,1
683,"MORPHINE ER 30 MG CAPSULE,EXTENDED RELEASE PELLETS","",1,30,1
684,"MORPHINE ER 30 MG TABLET,EXTENDED RELEASE","",1,30,1
685,"MORPHINE ER 40 MG CAPSULE,EXTENDED RELEASE PELLETS","",1,40,1
686,"MORPHINE ER 45 MG CAPSULE,EXT.RELEASE24HR MULTIPHASE","",1,45,1
687,"MORPHINE ER 60 MG CAPSULE,EXT.RELEASE24HR MULTIPHASE","",1,60,1
688,"MORPHINE ER 60 MG CAPSULE,EXTENDED RELEASE PELLETS","",1,60,1
689,"MORPHINE ER 60 MG TABLET,EXTENDED RELEASE","",1,60,1
690,"MORPHINE ER 80 MG CAPSULE,EXTENDED RELEASE PELLETS","",1,80,1
691,"MORPHINE ER 90 MG CAPSULE,EXT.RELEASE24HR MULTIPHASE","",1,90,1
692,"MORPHINE IN D5W 100 MG/50 ML PCA SYRINGE","",3,2,1
693,"MORPHINE IN NORMAL SALINE 1 MG/ML IV","",3,1,1
694,"MORPHINE IN NORMAL SALINE 1 MG/ML PUMP RESERVOIR, PREFILLED","",1,1,1
695,"MORPHINE IN NORMAL SALINE 5 MG/ML PUMP RESERVOIR, PREFILLED","",1,5,1
696,"MORPHINE IR 15 MG CAP","",1,15,1
697,"MORPHINE IR 15 MG TAB","",1,15,1
698,"MORPHINE IR 30 MG CAP","",1,30,1
699,"MORPHINE IR 30 MG TAB","",1,30,1
700,"MORPHINE LIPOSOMAL (PF) 20 MG/2 ML SUSP, EPIDURAL INJECTION","",3,10,1
701,"MORPHINE ORAL","",1,,1
702,"MORPHINE SR 100 MG TAB","",1,100,1
703,"MORPHINE SR 120 MG MULTIPHASE 24 HR CAP","",1,120,1
704,"MORPHINE SR 15 MG TAB","",1,15,1
705,"MORPHINE SR 200 MG TAB","",1,200,1
706,"MORPHINE SR 30 MG MULTIPHASE 24 HR CAP","",1,30,1
707,"MORPHINE SR 30 MG TAB","",1,30,1
708,"MORPHINE SR 45 MG MULTIPHASE 24 HR CAP","",1,45,1
709,"MORPHINE SR 60 MG MULTIPHASE 24 HR CAP","",1,60,1
710,"MORPHINE SR 60 MG TAB","",1,60,1
711,"MORPHINE SR 90 MG MULTIPHASE 24 HR CAP","",1,90,1
712,"MORPHINE SULFATE AMPUL 10MG/ML IJ","",3,10,1
713,"MORPHINE SULFATE INJECTION AMPUL 10MG/ML IJ","",3,10,1
714,"MORPHINE SULFATE INJECTION VIAL 5MG/ML IJ","",3,5,1
715,"MORPHINE SULFATE IR TABLET 15MG PO","",1,15,1
716,"MORPHINE SULFATE IR TABLET 30MG PO","",1,30,1
717,"MORPHINE(PF) IN 0.9% SOD.CHLORIDE 30 MG/30 ML (1 MG/ML) PCA IV SOLN (MORPHINE SULFATE/0.9% NACL/PF)","",3,1,1
718,"MORPHINE-NALTREXONE SR 100 MG-4 MG CAP, SUSTAINED RELEASE PELLETS (MORPHINE SULFATE/NALTREXONE)","",1,100,1
719,"MORPHINE-NALTREXONE SR 30 MG-1.2 MG CAP, SUSTAINED RELEASE PELLETS (MORPHINE SULFATE/NALTREXONE)","",1,30,1
720,"MORPHINE-NALTREXONE SR 50 MG-2 MG CAP, SUSTAINED RELEASE PELLETS (MORPHINE SULFATE/NALTREXONE)","",1,50,1
721,"MORPHINE-NALTREXONE SR 80 MG-3.2 MG CAP, SUSTAINED RELEASE PELLETS (MORPHINE SULFATE/NALTREXONE)","",1,80,1
722,"MS CONTIN 100 MG TAB (MORPHINE SULFATE)","",1,100,1
723,"MS CONTIN 15 MG TAB (MORPHINE SULFATE)","",1,15,1
724,"MS CONTIN 15 MG TABLET,EXTENDED RELEASE (MORPHINE SULFATE)","",1,15,1
725,"MS CONTIN 200 MG TAB (MORPHINE SULFATE)","",1,200,1
726,"MS CONTIN 30 MG TAB (MORPHINE SULFATE)","",1,30,1
727,"MS CONTIN 60 MG TAB (MORPHINE SULFATE)","",1,60,1
728,"MS CONTIN 60 MG TABLET,EXTENDED RELEASE (MORPHINE SULFATE)","",1,60,1
729,"MS CONTIN ORAL","",1,,1
730,"MSIR 10 MG/5 ML ORAL SOLN (MORPHINE SULFATE)","",1,2,1
731,"MSIR 15 MG CAP (MORPHINE SULFATE)","",1,15,1
732,"MSIR 15 MG TAB (MORPHINE SULFATE)","",1,15,1
733,"MSIR 20 MG/5 ML ORAL SOLN (MORPHINE SULFATE)","",1,4,1
734,"MSIR 30 MG CAP (MORPHINE SULFATE)","",1,30,1
735,"MSIR 30 MG TAB (MORPHINE SULFATE)","",1,30,1
736,"MSIR CONCENTRATE 20 MG/ML ORAL (MORPHINE SULFATE)","",1,20,1
737,"ORAMORPH SR 100 MG TAB (MORPHINE SULFATE)","",1,100,1
738,"ORAMORPH SR 15 MG TAB (MORPHINE SULFATE)","",1,15,1
739,"ORAMORPH SR 30 MG TAB (MORPHINE SULFATE)","",1,30,1
740,"ORAMORPH SR 60 MG TAB (MORPHINE SULFATE)","",1,60,1
741,"ROXANOL 100 SOLUTION 20MG/ML PO (MORPHINE SULFATE)","",1,20,1
742,"ROXANOL CONCENTRATE 20 MG/ML ORAL (MORPHINE SULFATE)","",1,20,1
743,"ROXANOL CONCENTRATE ORAL","",1,,1
744,"ROXANOL-T CONCENTRATE 20 MG/ML ORAL (MORPHINE SULFATE)","",1,20,1
745,"TORISEL 25 MG/ML IV SOLUTION (TEMSIROLIMUS)","",3,25,1
746,"B & O 15-A SUPPRETTE 16.2 MG-30 MG RECTAL (OPIUM/BELLADONNA ALKALOIDS)","",1,30,1
747,"BELLADONNA ALKALOIDS-OPIUM 15 MG-60 MG RECTAL SUPPOSITORY (OPIUM/BELLADONNA ALKALOIDS)","",1,60,1
748,"BELLADONNA ALKALOIDS-OPIUM 16.2 MG-30 MG RECTAL SUPPOSITORY (OPIUM/BELLADONNA ALKALOIDS)","",1,30,1
749,"BELLADONNA ALKALOIDS-OPIUM 16.2 MG-60 MG RECTAL SUPPOSITORY (OPIUM/BELLADONNA ALKALOIDS)","",1,60,1
750,"BELLADONNA-OPIUM 16.2 MG-30 MG RECTAL SUPPOSITORY (OPIUM/BELLADONNA ALKALOIDS)","",1,30,1
751,"BELLADONNA-OPIUM RECT","",1,,1
752,"OPIUM TINCTURE 10 MG/ML (MORPHINE) ORAL","",1,10,1
753,"OPIUM TINCTURE 10 MG/ML (MORPHINE) ORAL SYRINGE","",1,10,1
754,"OPIUM TINCTURE ORAL","",1,,1
755,"ENDOCET 10 MG-325 MG TAB (OXYCODONE HCL/ACETAMINOPHEN)","",1.5,10,1
756,"ENDOCET 10 MG-325 MG TABLET (OXYCODONE HCL/ACETAMINOPHEN)","",1.5,10,1
757,"ENDOCET 10 MG-650 MG TAB (OXYCODONE HCL/ACETAMINOPHEN)","",1.5,10,1
758,"ENDOCET 10 MG-650 MG TABLET (OXYCODONE HCL/ACETAMINOPHEN)","",1.5,10,1
759,"ENDOCET 5 MG-325 MG TAB (OXYCODONE HCL/ACETAMINOPHEN)","",1.5,5,1
760,"ENDOCET 5 MG-325 MG TABLET (OXYCODONE HCL/ACETAMINOPHEN)","",1.5,5,1
761,"ENDOCET 7.5 MG-325 MG TAB (OXYCODONE HCL/ACETAMINOPHEN)","",1.5,7.5,1
762,"ENDOCET 7.5 MG-325 MG TABLET (OXYCODONE HCL/ACETAMINOPHEN)","",1.5,7.5,1
763,"ENDOCET 7.5 MG-500 MG TAB (OXYCODONE HCL/ACETAMINOPHEN)","",1.5,7.5,1
764,"ENDOCET 7.5 MG-500 MG TABLET (OXYCODONE HCL/ACETAMINOPHEN)","",1.5,7.5,1
765,"ENDOCET ORAL","",1.5,,1
766,"ENDODAN 4.8355 MG-325 MG TAB (OXYCODONE HCL/ASPIRIN)","",1.5,4.8355,1
767,"ENDODAN 4.88 MG-325 MG TAB (OXYCODONE/ASPIRIN)","",1.5,4.88,1
768,"ETH-OXYDOSE 20 MG/ML (1 ML) ORAL CONCENTRATE (OXYCODONE HCL)","",1.5,20,1
769,"ETH-OXYDOSE 20 MG/ML ORAL CONCENTRATE (OXYCODONE HCL)","",1.5,20,1
770,"IBUPROFEN-OXYCODONE 400 MG-5 MG TAB (IBUPROFEN/OXYCODONE HCL)","",1.5,5,1
771,"IBUPROFEN-OXYCODONE 400 MG-5 MG TABLET (IBUPROFEN/OXYCODONE HCL)","",1.5,5,1
772,"LYNOX 2.5 MG-300 MG TAB (OXYCODONE HCL/ACETAMINOPHEN)","",1.5,2.5,1
773,"OXYCODONE (BULK) 100 % POWDER","",1.5,,1
774,"OXYCODONE (BULK) MISC","",1.5,,1
775,"OXYCODONE (ROXICODONE)","",1.5,,1
776,"OXYCODONE 10 MG TAB","",1.5,10,1
777,"OXYCODONE 10 MG TABLET","",1.5,10,1
778,"OXYCODONE 15 MG TAB","",1.5,15,1
779,"OXYCODONE 15 MG TABLET","",1.5,15,1
780,"OXYCODONE 20 MG TAB","",1.5,20,1
781,"OXYCODONE 20 MG TABLET","",1.5,20,1
782,"OXYCODONE 20 MG/ML (1 ML) ORAL CONCENTRATE","",1.5,20,1
783,"OXYCODONE 20 MG/ML ORAL CONCENTRATE","",1.5,20,1
784,"OXYCODONE 30 MG TAB","",1.5,30,1
785,"OXYCODONE 30 MG TABLET","",1.5,30,1
786,"OXYCODONE 5 MG  TAB","",1.5,5,1
787,"OXYCODONE 5 MG CAP","",1.5,5,1
788,"OXYCODONE 5 MG CAPSULE","",1.5,5,1
789,"OXYCODONE 5 MG TABLET","",1.5,5,1
790,"OXYCODONE 5 MG TABLET,ORAL ONLY(NOT FEEDING TUBES)","",1.5,5,1
791,"OXYCODONE 5 MG/5 ML ORAL SOLN","",1.5,1,1
792,"OXYCODONE 7.5 MG TAB","",1.5,7.5,1
793,"OXYCODONE 7.5 MG TABLET,ORAL ONLY(NOT FEEDING TUBES)","",1.5,7.5,1
794,"OXYCODONE 7.5 MG-ACETAMINOPHEN ER 325 MG TAB EXTENDED REL. ORAL ONLY","",1.5,7.5,1
795,"OXYCODONE ER 10 MG TABLET,CRUSH RESISTANT,EXTENDED RELEASE 12 HR","",1.5,10,1
796,"OXYCODONE ER 10 MG TABLET,EXTENDED RELEASE,12 HR","",1.5,10,1
797,"OXYCODONE ER 15 MG TABLET,CRUSH RESISTANT,EXTENDED RELEASE 12 HR","",1.5,15,1
798,"OXYCODONE ER 15 MG TABLET,EXTENDED RELEASE,12 HR","",1.5,15,1
799,"OXYCODONE ER 20 MG TABLET,EXTENDED RELEASE,12 HR","",1.5,20,1
800,"OXYCODONE ER 30 MG TABLET,EXTENDED RELEASE,12 HR","",1.5,30,1
801,"OXYCODONE ER 40 MG TABLET,CRUSH RESISTANT,EXTENDED RELEASE 12 HR","",1.5,40,1
802,"OXYCODONE ER 40 MG TABLET,EXTENDED RELEASE,12 HR","",1.5,40,1
803,"OXYCODONE ER 60 MG TABLET,EXTENDED RELEASE,12 HR","",1.5,60,1
804,"OXYCODONE ER 80 MG TABLET,CRUSH RESISTANT,EXTENDED RELEASE 12 HR","",1.5,80,1
805,"OXYCODONE ER 80 MG TABLET,EXTENDED RELEASE,12 HR","",1.5,80,1
806,"OXYCODONE HCL TABLET 5MG PO","",1.5,5,1
807,"OXYCODONE HCL-OXYCODONE TER-ASPIRIN 4.5 MG-0.38 MG-325 MG TABLET","",1.5,,1
808,"OXYCODONE HCL-OXYCODONE-ASA ORAL","",1.5,,1
809,"OXYCODONE ORAL","",1.5,,1
810,"OXYCODONE SR 10 MG 12 HR TAB","",1.5,10,1
811,"OXYCODONE SR 15 MG 12 HR TAB","",1.5,15,1
812,"OXYCODONE SR 20 MG 12 HR TAB","",1.5,20,1
813,"OXYCODONE SR 30 MG 12 HR TAB","",1.5,30,1
814,"OXYCODONE SR 40 MG 12 HR TAB","",1.5,40,1
815,"OXYCODONE SR 60 MG 12 HR TAB","",1.5,60,1
816,"OXYCODONE SR 80 MG 12 HR TAB","",1.5,80,1
817,"OXYCODONE W/ASPIRIN TABLET 4.88-325MG PO (OXYCODONE/ASPIRIN)","",1.5,4.88,1
818,"OXYCODONE/ACETAMINOPHEN (PERCOCET,ENDOCET,ROXICET)","",1.5,,1
819,"OXYCODONE/APAP TABLET 10-650MG PO (OXYCODONE HCL/ACETAMINOPHEN)","",1.5,10,1
820,"OXYCODONE/APAP TABLET 7.5-500MG PO (OXYCODONE HCL/ACETAMINOPHEN)","",1.5,7.5,1
821,"OXYCODONE-ACETAMINOPHEN 10 MG-300 MG TAB (OXYCODONE HCL/ACETAMINOPHEN)","",1.5,10,1
822,"OXYCODONE-ACETAMINOPHEN 10 MG-300 MG TABLET (OXYCODONE HCL/ACETAMINOPHEN)","",1.5,10,1
823,"OXYCODONE-ACETAMINOPHEN 10 MG-325 MG TAB (OXYCODONE HCL/ACETAMINOPHEN)","",1.5,10,1
824,"OXYCODONE-ACETAMINOPHEN 10 MG-325 MG TABLET (OXYCODONE HCL/ACETAMINOPHEN)","",1.5,10,1
825,"OXYCODONE-ACETAMINOPHEN 10 MG-400 MG TAB (OXYCODONE HCL/ACETAMINOPHEN)","",1.5,10,1
826,"OXYCODONE-ACETAMINOPHEN 10 MG-400 MG TABLET (OXYCODONE HCL/ACETAMINOPHEN)","",1.5,10,1
827,"OXYCODONE-ACETAMINOPHEN 10 MG-500 MG TAB (OXYCODONE HCL/ACETAMINOPHEN)","",1.5,10,1
828,"OXYCODONE-ACETAMINOPHEN 10 MG-650 MG TAB (OXYCODONE HCL/ACETAMINOPHEN)","",1.5,10,1
829,"OXYCODONE-ACETAMINOPHEN 10 MG-650 MG TABLET (OXYCODONE HCL/ACETAMINOPHEN)","",1.5,10,1
830,"OXYCODONE-ACETAMINOPHEN 2.5 MG-300 MG TAB (OXYCODONE HCL/ACETAMINOPHEN)","",1.5,2.5,1
831,"OXYCODONE-ACETAMINOPHEN 2.5 MG-300 MG TABLET (OXYCODONE HCL/ACETAMINOPHEN)","",1.5,2.5,1
832,"OXYCODONE-ACETAMINOPHEN 2.5 MG-325 MG TAB (OXYCODONE HCL/ACETAMINOPHEN)","",1.5,2.5,1
833,"OXYCODONE-ACETAMINOPHEN 2.5 MG-325 MG TABLET (OXYCODONE HCL/ACETAMINOPHEN)","",1.5,2.5,1
834,"OXYCODONE-ACETAMINOPHEN 2.5 MG-400 MG TAB (OXYCODONE HCL/ACETAMINOPHEN)","",1.5,2.5,1
835,"OXYCODONE-ACETAMINOPHEN 5 MG-300 MG TAB (OXYCODONE HCL/ACETAMINOPHEN)","",1.5,5,1
836,"OXYCODONE-ACETAMINOPHEN 5 MG-300 MG TABLET (OXYCODONE HCL/ACETAMINOPHEN)","",1.5,5,1
837,"OXYCODONE-ACETAMINOPHEN 5 MG-325 MG TAB (OXYCODONE HCL/ACETAMINOPHEN)","",1.5,5,1
838,"OXYCODONE-ACETAMINOPHEN 5 MG-325 MG TABLET (OXYCODONE HCL/ACETAMINOPHEN)","",1.5,5,1
839,"OXYCODONE-ACETAMINOPHEN 5 MG-325 MG/5 ML ORAL SOLN (OXYCODONE HCL/ACETAMINOPHEN)","",1.5,5,1
840,"OXYCODONE-ACETAMINOPHEN 5 MG-400 MG TAB (OXYCODONE HCL/ACETAMINOPHEN)","",1.5,5,1
841,"OXYCODONE-ACETAMINOPHEN 5 MG-500 MG CAP (OXYCODONE HCL/ACETAMINOPHEN)","",1.5,5,1
842,"OXYCODONE-ACETAMINOPHEN 5 MG-500 MG CAPSULE (OXYCODONE HCL/ACETAMINOPHEN)","",1.5,5,1
843,"OXYCODONE-ACETAMINOPHEN 5 MG-500 MG TAB (OXYCODONE HCL/ACETAMINOPHEN)","",1.5,5,1
844,"OXYCODONE-ACETAMINOPHEN 5 MG-500 MG TABLET (OXYCODONE HCL/ACETAMINOPHEN)","",1.5,5,1
845,"OXYCODONE-ACETAMINOPHEN 7.5 MG-300 MG TAB (OXYCODONE HCL/ACETAMINOPHEN)","",1.5,7.5,1
846,"OXYCODONE-ACETAMINOPHEN 7.5 MG-325 MG TAB (OXYCODONE HCL/ACETAMINOPHEN)","",1.5,7.5,1
847,"OXYCODONE-ACETAMINOPHEN 7.5 MG-325 MG TABLET (OXYCODONE HCL/ACETAMINOPHEN)","",1.5,7.5,1
848,"OXYCODONE-ACETAMINOPHEN 7.5 MG-500 MG TAB (OXYCODONE HCL/ACETAMINOPHEN)","",1.5,7.5,1
849,"OXYCODONE-ACETAMINOPHEN 7.5 MG-500 MG TABLET (OXYCODONE HCL/ACETAMINOPHEN)","",1.5,7.5,1
850,"OXYCODONE-ACETAMINOPHEN ORAL","",1.5,,1
851,"OXYCODONE-ACETAMINOPHEN TABLET 5MG-325MG PO (OXYCODONE HCL/ACETAMINOPHEN)","",1.5,5,1
852,"OXYCODONE-ASPIRIN 2.44 MG-325 MG TAB (OXYCODONE/ASPIRIN)","",1.5,2.44,1
853,"OXYCODONE-ASPIRIN 4.8355 MG-325 MG TAB (OXYCODONE HCL/ASPIRIN)","",1.5,4.8355,1
854,"OXYCODONE-ASPIRIN 4.8355 MG-325 MG TABLET (OXYCODONE HCL/ASPIRIN)","",1.5,4.8355,1
855,"OXYCODONE-ASPIRIN 4.88 MG-325 MG TAB (OXYCODONE/ASPIRIN)","",1.5,4.88,1
856,"OXYCODONE-ASPIRIN ORAL","",1.5,,1
857,"OXYCONTIN 10 MG 12 HR TAB (OXYCODONE HCL)","",1.5,10,1
858,"OXYCONTIN 10 MG TABLET,CRUSH RESISTANT,EXTENDED RELEASE (OXYCODONE HCL)","",1.5,10,1
859,"OXYCONTIN 10 MG TABLET,EXTENDED RELEASE (OXYCODONE HCL)","",1.5,10,1
860,"OXYCONTIN 15 MG 12 HR TAB (OXYCODONE HCL)","",1.5,15,1
861,"OXYCONTIN 160 MG 12 HR TAB (OXYCODONE HCL)","",1.5,160,1
862,"OXYCONTIN 20 MG 12 HR TAB (OXYCODONE HCL)","",1.5,20,1
863,"OXYCONTIN 20 MG TABLET,EXTENDED RELEASE (OXYCODONE HCL)","",1.5,20,1
864,"OXYCONTIN 30 MG 12 HR TAB (OXYCODONE HCL)","",1.5,30,1
865,"OXYCONTIN 30 MG TABLET,EXTENDED RELEASE (OXYCODONE HCL)","",1.5,30,1
866,"OXYCONTIN 40 MG 12 HR TAB (OXYCODONE HCL)","",1.5,40,1
867,"OXYCONTIN 40 MG TABLET,EXTENDED RELEASE (OXYCODONE HCL)","",1.5,40,1
868,"OXYCONTIN 60 MG 12 HR TAB (OXYCODONE HCL)","",1.5,60,1
869,"OXYCONTIN 60 MG TABLET,EXTENDED RELEASE (OXYCODONE HCL)","",1.5,60,1
870,"OXYCONTIN 80 MG 12 HR TAB (OXYCODONE HCL)","",1.5,80,1
871,"OXYCONTIN 80 MG TABLET,EXTENDED RELEASE (OXYCODONE HCL)","",1.5,80,1
872,"OXYCONTIN ORAL","",1.5,,1
873,"OXYFAST 20 MG/ML ORAL CONCENTRATE (OXYCODONE HCL)","",1.5,20,1
874,"OXYIR 5 MG CAP (OXYCODONE HCL)","",1.5,5,1
875,"PERCOCET (OXYCODONE W/APAP)","",1.5,,1
876,"PERCOCET 10 MG-325 MG TAB (OXYCODONE HCL/ACETAMINOPHEN)","",1.5,10,1
877,"PERCOCET 10 MG-325 MG TABLET (OXYCODONE HCL/ACETAMINOPHEN)","",1.5,10,1
878,"PERCOCET 10 MG-650 MG TAB (OXYCODONE HCL/ACETAMINOPHEN)","",1.5,10,1
879,"PERCOCET 10 MG-650 MG TABLET (OXYCODONE HCL/ACETAMINOPHEN)","",1.5,10,1
880,"PERCOCET 2.5 MG-325 MG TAB (OXYCODONE HCL/ACETAMINOPHEN)","",1.5,2.5,1
881,"PERCOCET 5 MG-325 MG TAB (OXYCODONE HCL/ACETAMINOPHEN)","",1.5,5,1
882,"PERCOCET 5 MG-325 MG TABLET (OXYCODONE HCL/ACETAMINOPHEN)","",1.5,5,1
883,"PERCOCET 7.5 MG-325 MG TAB (OXYCODONE HCL/ACETAMINOPHEN)","",1.5,7.5,1
884,"PERCOCET 7.5 MG-325 MG TABLET (OXYCODONE HCL/ACETAMINOPHEN)","",1.5,7.5,1
885,"PERCOCET 7.5 MG-500 MG TAB (OXYCODONE HCL/ACETAMINOPHEN)","",1.5,7.5,1
886,"PERCOCET 7.5 MG-500 MG TABLET (OXYCODONE HCL/ACETAMINOPHEN)","",1.5,7.5,1
887,"PERCOCET ORAL","",1.5,,1
888,"PERCODAN 4.8355 MG-325 MG TAB (OXYCODONE HCL/ASPIRIN)","",1.5,4.8355,1
889,"PERCODAN 4.88 MG-325 MG TAB (OXYCODONE/ASPIRIN)","",1.5,4.88,1
890,"PERCODAN ORAL","",1.5,,1
891,"PERCOLONE 5 MG TAB (OXYCODONE HCL)","",1.5,5,1
892,"PERLOXX 2.5 MG-300 MG TAB (OXYCODONE HCL/ACETAMINOPHEN)","",1.5,2.5,1
893,"ROXICET 5 MG-325 MG TAB (OXYCODONE HCL/ACETAMINOPHEN)","",1.5,5,1
894,"ROXICET 5 MG-325 MG/5 ML ORAL SOLN (OXYCODONE HCL/ACETAMINOPHEN)","",1.5,5,1
895,"ROXICET 5 MG-500 MG TAB (OXYCODONE HCL/ACETAMINOPHEN)","",1.5,5,1
896,"ROXICET ORAL","",1.5,,1
897,"ROXICODONE 15 MG TAB (OXYCODONE HCL)","",1.5,15,1
898,"ROXICODONE 30 MG TAB (OXYCODONE HCL)","",1.5,30,1
899,"ROXICODONE 5 MG TAB (OXYCODONE HCL)","",1.5,5,1
900,"ROXICODONE 5 MG/5 ML ORAL SOLN (OXYCODONE HCL)","",1.5,1,1
901,"ROXICODONE INTENSOL 20 MG/ML ORAL CONCENTRATE (OXYCODONE HCL)","",1.5,20,1
902,"ROXILOX CAPSULE 5-500MG PO (OXYCODONE HCL/ACETAMINOPHEN)","",1.5,5,1
903,"TYLOX 5 MG-500 MG CAP (OXYCODONE HCL/ACETAMINOPHEN)","",1.5,5,1
904,"OPANA 1 MG/ML INJECTION (OXYMORPHONE HCL)","",3,1,1
905,"OPANA 10 MG TAB (OXYMORPHONE HCL)","",3,10,1
458,"DILAUDID MISC","",4,,1
906,"OPANA 10 MG TABLET (OXYMORPHONE HCL)","",3,10,1
907,"OPANA 5 MG TAB (OXYMORPHONE HCL)","",3,5,1
908,"OPANA ER 10 MG 12 HR TAB (OXYMORPHONE HCL)","",3,10,1
909,"OPANA ER 10 MG TABLET, CRUSH RESISTANT, EXTENDED RELEASE (OXYMORPHONE HCL)","",3,10,1
910,"OPANA ER 15 MG 12 HR TAB (OXYMORPHONE HCL)","",3,15,1
911,"OPANA ER 15 MG TABLET (OXYMORPHONE HCL)","",3,15,1
912,"OPANA ER 20 MG 12 HR TAB (OXYMORPHONE HCL)","",3,20,1
913,"OPANA ER 20 MG TABLET, CRUSH RESISTANT, EXTENDED RELEASE (OXYMORPHONE HCL)","",3,20,1
914,"OPANA ER 30 MG 12 HR TAB (OXYMORPHONE HCL)","",3,30,1
915,"OPANA ER 30 MG TABLET, CRUSH RESISTANT, EXTENDED RELEASE (OXYMORPHONE HCL)","",3,30,1
916,"OPANA ER 40 MG 12 HR TAB (OXYMORPHONE HCL)","",3,40,1
917,"OPANA ER 40 MG TABLET, CRUSH RESISTANT, EXTENDED RELEASE (OXYMORPHONE HCL)","",3,40,1
918,"OPANA ER 5 MG 12 HR TAB (OXYMORPHONE HCL)","",3,5,1
919,"OPANA ER 5 MG TABLET, CRUSH RESISTANT, EXTENDED RELEASE (OXYMORPHONE HCL)","",3,5,1
920,"OPANA ER 5 MG TABLET,EXTENDED RELEASE (OXYMORPHONE HCL)","",3,5,1
921,"OPANA ER 7.5 MG 12 HR TAB (OXYMORPHONE HCL)","",3,7.5,1
922,"OXYMORPHONE 10 MG TAB","",3,10,1
923,"OXYMORPHONE 10 MG TABLET","",3,10,1
924,"OXYMORPHONE 15 MG TABLET,ORAL ONLY,EXTENDED RELEASE","",3,15,1
925,"OXYMORPHONE 5 MG TAB","",3,5,1
926,"OXYMORPHONE 5 MG TABLET","",3,5,1
927,"OXYMORPHONE 7.5 MG TABLET,ORAL ONLY,EXTENDED RELEASE","",3,7.5,1
928,"OXYMORPHONE ER 10 MG TABLET, CRUSH RESISTANT,EXTENDED RELEASE 12 HR","",3,10,1
929,"OXYMORPHONE ER 10 MG TABLET,EXTENDED RELEASE,12 HR","",3,10,1
930,"OXYMORPHONE ER 15 MG TABLET,EXTENDED RELEASE,12 HR","",3,15,1
931,"OXYMORPHONE ER 20 MG TABLET,CRUSH RESISTANT,EXTENDED RELEASE 12 HR","",3,20,1
932,"OXYMORPHONE ER 20 MG TABLET,EXTENDED RELEASE,12 HR","",3,20,1
933,"OXYMORPHONE ER 30 MG TABLET,CRUSH RESISTANT,EXTENDED RELEASE 12 HR","",3,30,1
934,"OXYMORPHONE ER 30 MG TABLET,EXTENDED RELEASE,12 HR","",3,30,1
935,"OXYMORPHONE ER 40 MG TABLET,CRUSH RESISTANT,EXTENDED RELEASE 12 HR","",3,40,1
936,"OXYMORPHONE ER 40 MG TABLET,EXTENDED RELEASE,12 HR","",3,40,1
937,"OXYMORPHONE ER 5 MG TABLET,CRUSH RESISTANT,EXTENDED RELEASE 12 HR","",3,5,1
938,"OXYMORPHONE ER 5 MG TABLET,EXTENDED RELEASE,12 HR","",3,5,1
939,"OXYMORPHONE ER 7.5 MG TABLET,EXTENDED RELEASE,12 HR","",3,7.5,1
940,"OXYMORPHONE SR 10 MG 12 HR TAB","",3,10,1
941,"OXYMORPHONE SR 15 MG 12 HR TAB","",3,15,1
942,"OXYMORPHONE SR 20 MG 12 HR TAB","",3,20,1
943,"OXYMORPHONE SR 30 MG 12 HR TAB","",3,30,1
944,"OXYMORPHONE SR 40 MG 12 HR TAB","",3,40,1
945,"OXYMORPHONE SR 5 MG 12 HR TAB","",3,5,1
946,"OXYMORPHONE SR 7.5 MG 12 HR TAB","",3,7.5,1
947,"PENTAZOCINE/NALOXONE TABLET 50-0.5MG PO (PENTAZOCINE HCL/NALOXONE HCL)","",0.37,50,1
948,"PENTAZOCINE-ACETAMINOPHEN 25 MG-650 MG TAB (PENTAZOCINE HCL/ACETAMINOPHEN)","",0.37,25,1
949,"PENTAZOCINE-ACETAMINOPHEN 25 MG-650 MG TABLET (PENTAZOCINE HCL/ACETAMINOPHEN)","",0.37,25,1
950,"PENTAZOCINE-NALOXONE 50 MG-0.5 MG TAB (PENTAZOCINE HCL/NALOXONE HCL)","",0.37,50,1
951,"PENTAZOCINE-NALOXONE 50 MG-0.5 MG TABLET (PENTAZOCINE HCL/NALOXONE HCL)","",0.37,50,1
952,"PENTAZOCINE-NALOXONE ORAL","",0.37,,1
953,"TALACEN 25 MG-650 MG TAB (PENTAZOCINE HCL/ACETAMINOPHEN)","",0.37,25,1
954,"TALWIN 30 MG/ML INJECTION (PENTAZOCINE LACTATE)","",2,30,1
955,"TALWIN NX 50 MG-0.5 MG TAB (PENTAZOCINE HCL/NALOXONE HCL)","",0.37,50,1
956,"TALWIN NX ORAL","",0.37,,1
957,"ALPRAZOLAM","",2,,2
958,"ALPRAZOLAM 0.25 MG DISINTEGRATING TABLET","",2,0.25,2
959,"ALPRAZOLAM 0.25 MG TAB","",2,0.25,2
960,"ALPRAZOLAM 0.25 MG TABLET","",2,0.25,2
961,"ALPRAZOLAM 0.25 MG TAB, RAPID DISSOLVE","",2,0.25,2
962,"alprazolam 0.5mg","",2,0.5,2
963,"ALPRAZOLAM 0.5 MG/5 ML ORAL SOLN","",2,0.1,2
964,"ALPRAZOLAM 0.5 MG DISINTEGRATING TABLET","",2,0.5,2
965,"ALPRAZOLAM 0.5 MG TAB","",2,0.5,2
966,"ALPRAZOLAM 0.5 MG TABLET","",2,0.5,2
967,"ALPRAZOLAM 0.5 MG TAB, RAPID DISSOLVE","",2,0.5,2
968,"ALPRAZOLAM 1 MG DISINTEGRATING TABLET","",2,1,2
969,"ALPRAZOLAM 1 MG/ML ORAL CONCENTRATE","",2,1,2
970,"ALPRAZOLAM 1 MG TAB","",2,1,2
971,"alprazolam 1 mg.tablet","",2,1,2
972,"ALPRAZOLAM 1 MG TABLET","",2,1,2
973,"ALPRAZOLAM 1 MG TAB, RAPID DISSOLVE","",2,1,2
974,"ALPRAZOLAM 2 MG TAB","",2,2,2
975,"ALPRAZOLAM 2 MG TABLET","",2,2,2
976,"ALPRAZOLAM 2 MG TAB, RAPID DISSOLVE","",2,2,2
977,"ALPRAZOLAM (BULK) 100 % POWDER","",2,,2
978,"ALPRAZOLAM (BULK) MISC","",2,,2
979,"ALPRAZOLAM-DIETARY SUPPLEMENT NO.17 0.25 MG ORAL COMBO PACK (ALPRAZOLAM/DIETARY SUPPL NO.17)","",2,0.25,2
980,"ALPRAZOLAM ER 0.5 MG TABLET,EXTENDED RELEASE 24 HR","",2,0.5,2
981,"ALPRAZOLAM ER 1 MG TABLET,EXTENDED RELEASE 24 HR","",2,1,2
982,"ALPRAZOLAM ER 2 MG TABLET,EXTENDED RELEASE 24 HR","",2,2,2
983,"ALPRAZOLAM ER 3 MG TABLET,EXTENDED RELEASE 24 HR","",2,3,2
984,"ALPRAZOLAM INTENSOL 1 MG/ML ORAL CONCENTRATE","",2,1,2
985,"ALPRAZOLAM ORAL","",2,,2
986,"ALPRAZOLAM SR 0.5 MG 24 HR TAB","",2,0.5,2
987,"ALPRAZOLAM SR 1 MG 24 HR TAB","",2,1,2
988,"ALPRAZOLAM SR 2 MG 24 HR TAB","",2,2,2
989,"ALPRAZOLAM SR 3 MG 24 HR TAB","",2,3,2
990,"ALPRAZOLAM (XANAX)","",2,,2
991,"ALPRAZOLAM XR TAB.SR 24H 0.5MG PO","",2,0.5,2
992,"ALPRAZOLAM XR TAB.SR 24H 1MG PO","",2,1,2
993,"ALPRAZOLAM XR TAB.SR 24H 2MG PO","",2,2,2
994,"NIRAVAM 0.25 MG TAB, RAPID DISSOLVE (ALPRAZOLAM)","",2,0.25,2
995,"NIRAVAM 0.5 MG TAB, RAPID DISSOLVE (ALPRAZOLAM)","",2,0.5,2
1332,"MORPHINE 50 MG/ML IV","",3,50,1
996,"NIRAVAM 1 MG TAB, RAPID DISSOLVE (ALPRAZOLAM)","",2,1,2
997,"XANAX 0.25 MG TAB (ALPRAZOLAM)","",2,0.25,2
998,"XANAX 0.25 MG TABLET (ALPRAZOLAM)","",2,0.25,2
999,"XANAX 0.5 MG TAB (ALPRAZOLAM)","",2,0.5,2
1000,"XANAX 0.5 MG TABLET (ALPRAZOLAM)","",2,0.5,2
1001,"XANAX 1 MG TAB (ALPRAZOLAM)","",2,1,2
1002,"XANAX 1 MG TABLET (ALPRAZOLAM)","",2,1,2
1003,"XANAX 2 MG TAB (ALPRAZOLAM)","",2,2,2
1004,"XANAX ORAL","",2,,2
1005,"XANAX XR 0.5 MG 24 HR TAB (ALPRAZOLAM)","",2,0.5,2
1006,"XANAX XR 1 MG 24 HR TAB (ALPRAZOLAM)","",2,1,2
1007,"XANAX XR 1 MG TABLET,EXTENDED RELEASE (ALPRAZOLAM)","",2,1,2
1008,"XANAX XR 2 MG 24 HR TAB (ALPRAZOLAM)","",2,2,2
1009,"XANAX XR 2 MG TABLET,EXTENDED RELEASE (ALPRAZOLAM)","",2,2,2
1010,"XANAX XR 3 MG 24 HR TAB (ALPRAZOLAM)","",2,3,2
1011,"XANAX XR ORAL","",2,,2
1012,"AMITRIPTYLINE-CHLORDIAZEPOXIDE 12.5 MG-5 MG TAB (AMITRIP HCL/CHLORDIAZEPOXIDE)","",0.04,5,2
1013,"AMITRIPTYLINE-CHLORDIAZEPOXIDE 12.5 MG-5 MG TABLET (AMITRIP HCL/CHLORDIAZEPOXIDE)","",0.04,5,2
1014,"AMITRIPTYLINE-CHLORDIAZEPOXIDE 25 MG-10 MG TAB (AMITRIP HCL/CHLORDIAZEPOXIDE)","",0.04,10,2
1015,"AMITRIPTYLINE-CHLORDIAZEPOXIDE ORAL","",0.04,,2
1016,"CHLORDIAZEPOXIDE 10 MG CAP","",0.04,10,2
1017,"CHLORDIAZEPOXIDE 10 MG CAPSULE","",0.04,10,2
1018,"CHLORDIAZEPOXIDE 10 MG TAB","",0.04,10,2
1019,"CHLORDIAZEPOXIDE 10 MG TABLET","",0.04,10,2
1020,"CHLORDIAZEPOXIDE 25 MG CAP","",0.04,25,2
1021,"CHLORDIAZEPOXIDE 25 MG CAPSULE","",0.04,25,2
1022,"CHLORDIAZEPOXIDE 25 MG TAB","",0.04,25,2
1023,"CHLORDIAZEPOXIDE 25 MG TABLET","",0.04,25,2
1024,"CHLORDIAZEPOXIDE 5 MG CAP","",0.04,5,2
1025,"CHLORDIAZEPOXIDE 5 MG CAPSULE","",0.04,5,2
1026,"CHLORDIAZEPOXIDE 5 MG TAB","",0.04,5,2
1027,"CHLORDIAZEPOXIDE 5 MG TABLET","",0.04,5,2
1028,"CHLORDIAZEPOXIDE-CLIDINIUM 5 MG-2.5 MG CAPSULE (CHLORDIAZEPOXIDE/CLIDINIUM BR)","",0.04,5,2
1029,"CHLORDIAZEPOXIDE-CLIDINIUM ORAL","",0.04,,2
1030,"CHLORDIAZEPOXIDE-METHSCOPOLAMINE 5 MG-2.5 MG CAP (CHLORDIAZEPOXIDE/METHSCOPOLAMN)","",0.04,5,2
1031,"CHLORDIAZEPOXIDE ORAL","",0.04,,2
1032,"CLIDINIUM-CHLORDIAZEPOXIDE 2.5 MG-5 MG CAP (CLIDINIUM BR/CHLORDIAZEPOXIDE)","",0.04,5,2
1033,"CLINDINUM-CHLORDIAZEPOXIDE CAPSULE 2.5-5MG PO (CLIDINIUM BR/CHLORDIAZEPOXIDE)","",0.04,5,2
1034,"LIBRAX (WITH CLIDINIUM) 2.5 MG-5 MG CAP (CLIDINIUM BR/CHLORDIAZEPOXIDE)","",0.04,5,2
1035,"LIBRAX (WITH METHSCOPOLAMINE) 5 MG-2.5 MG CAP (CHLORDIAZEPOXIDE/METHSCOPOLAMN)","",0.04,5,2
1036,"LIBRIUM 10 MG CAP (CHLORDIAZEPOXIDE HCL)","",0.04,10,2
1037,"LIBRIUM 25 MG CAP (CHLORDIAZEPOXIDE HCL)","",0.04,25,2
1038,"LIBRIUM 5 MG CAP (CHLORDIAZEPOXIDE HCL)","",0.04,5,2
1039,"LIBRIUM INJ","",0.04,,2
1040,"LIBRIUM ORAL","",0.04,,2
1041,"LIMBITROL 12.5 MG-5 MG TAB (AMITRIP HCL/CHLORDIAZEPOXIDE)","",0.04,5,2
1042,"LIMBITROL DS 25 MG-10 MG TAB (AMITRIP HCL/CHLORDIAZEPOXIDE)","",0.04,10,2
1043,"CEBERCLON 0.5 MG TAB (CLONAZEPAM)","",1,0.5,2
1044,"CEBERCLON 1 MG TAB (CLONAZEPAM)","",1,1,2
1045,"CLONAZEPAM 0.125 MG DISINTEGRATING TABLET","",1,0.125,2
1046,"CLONAZEPAM 0.125 MG TAB, RAPID DISSOLVE","",1,0.125,2
1047,"CLONAZEPAM 0.25 MG DISINTEGRATING TABLET","",1,0.25,2
1048,"CLONAZEPAM 0.25 MG TAB, RAPID DISSOLVE","",1,0.25,2
1049,"CLONAZEPAM 0.5 MG DISINTEGRATING TABLET","",1,0.5,2
1050,"clonazepam 0.5 mgm","",1,0.5,2
1051,"CLONAZEPAM 0.5 MG TAB","",1,0.5,2
1052,"CLONAZEPAM 0.5 MG TABLET","",1,0.5,2
1053,"CLONAZEPAM 0.5 MG TAB, RAPID DISSOLVE","",1,0.5,2
1054,"clonazepam 1mg","",1,1,2
1055,"CLONAZEPAM 1MG","",1,1,2
1056,"CLONAZEPAM 1 MG DISINTEGRATING TABLET","",1,1,2
1057,"CLONAZEPAM 1 MG TAB","",1,1,2
1058,"CLONAZEPAM 1 MG TABLET","",1,1,2
1059,"CLONAZEPAM 1 MG TAB, RAPID DISSOLVE","",1,1,2
1060,"CLONAZEPAM 2 MG TAB","",1,2,2
1061,"CLONAZEPAM 2 MG TABLET","",1,2,2
1062,"CLONAZEPAM 2 MG TAB, RAPID DISSOLVE","",1,2,2
1063,"CLONAZEPAM (BULK) 100 % POWDER","",1,,2
1064,"CLONAZEPAM (BULK) MISC","",1,,2
1065,"CLONAZEPAM ORAL","",1,,2
1066,"KLONOPIN 0.125 MG TAB, RAPID DISSOLVE (CLONAZEPAM)","",1,0.125,2
1067,"KLONOPIN 0.25 MG TAB, RAPID DISSOLVE (CLONAZEPAM)","",1,0.25,2
1068,"KLONOPIN 0.5 MG TAB (CLONAZEPAM)","",1,0.5,2
1069,"KLONOPIN 0.5 MG TABLET (CLONAZEPAM)","",1,0.5,2
1070,"KLONOPIN 0.5 MG TAB, RAPID DISSOLVE (CLONAZEPAM)","",1,0.5,2
1071,"KLONOPIN 1 MG TAB (CLONAZEPAM)","",1,1,2
1072,"KLONOPIN 1 MG TABLET (CLONAZEPAM)","",1,1,2
1073,"KLONOPIN 1 MG TAB, RAPID DISSOLVE (CLONAZEPAM)","",1,1,2
1074,"KLONOPIN 2 MG TAB (CLONAZEPAM)","",1,2,2
1075,"KLONOPIN 2 MG TAB, RAPID DISSOLVE (CLONAZEPAM)","",1,2,2
1076,"KLONOPIN ORAL","",1,,2
1077,"CLORAZEPATE DIPOTASSIUM 15 MG TAB","",0.1,15,2
1078,"CLORAZEPATE DIPOTASSIUM 15 MG TABLET","",0.1,15,2
1079,"CLORAZEPATE DIPOTASSIUM 3.75 MG TAB","",0.1,3.75,2
1080,"CLORAZEPATE DIPOTASSIUM 3.75 MG TABLET","",0.1,3.75,2
1081,"CLORAZEPATE DIPOTASSIUM 7.5 MG TAB","",0.1,7.5,2
1082,"CLORAZEPATE DIPOTASSIUM 7.5 MG TABLET","",0.1,7.5,2
1083,"CLORAZEPATE DIPOTASSIUM ORAL","",0.1,,2
1084,"CLORAZEPATE DIPOTASSIUM SR 11.25 MG TAB","",0.1,11.25,2
1085,"TRANXENE CAPSULE 3.75MG PO (CLORAZEPATE DIPOTASSIUM)","",0.1,3.75,2
1086,"TRANXENE-SD 11.25 MG TAB (CLORAZEPATE DIPOTASSIUM)","",0.1,11.25,2
1087,"TRANXENE-SD ORAL","",0.1,,2
1088,"TRANXENE T-TAB 15 MG TAB (CLORAZEPATE DIPOTASSIUM)","",0.1,15,2
1089,"TRANXENE T-TAB 3.75 MG TAB (CLORAZEPATE DIPOTASSIUM)","",0.1,3.75,2
1090,"TRANXENE T-TAB 7.5 MG TAB (CLORAZEPATE DIPOTASSIUM)","",0.1,7.5,2
1091,"TRANXENE T-TAB ORAL","",0.1,,2
1092,"DIASTAT 10 MG RECTAL KIT (DIAZEPAM)","",0.2,10,2
1093,"DIASTAT 15 MG RECTAL KIT (DIAZEPAM)","",0.2,15,2
1094,"DIASTAT 20 MG RECTAL KIT (DIAZEPAM)","",0.2,20,2
1095,"DIASTAT 2.5 MG RECTAL KIT (DIAZEPAM)","",0.2,2.5,2
1098,"DIASTAT ACUDIAL RECT","",0.2,,2
1099,"DIASTAT PEDIATRIC 2.5 MG RECTAL KIT (DIAZEPAM)","",0.2,2.5,2
1100,"DIASTAT PEDIATRIC 5 MG RECTAL KIT (DIAZEPAM)","",0.2,5,2
1101,"DIASTAT RECT","",0.2,,2
1102,"DIAZEPAM 10 MG RECTAL KIT","",0.2,10,2
1103,"DIAZEPAM 10 MG TAB","",0.2,10,2
1104,"DIAZEPAM 10 MG TABLET","",0.2,10,2
358,"HYDROCODONE-GUAIFENESIN 2.5 MG-100 MG/5 ML SYRUP (GUAIFENESIN/HYDROCODONE BIT)","",1,2.5,1
1106,"DIAZEPAM 15 MG RECTAL KIT","",0.2,15,2
1107,"DIAZEPAM 20 MG RECTAL KIT","",0.2,20,2
1108,"DIAZEPAM 2.5 MG RECTAL KIT","",0.2,2.5,2
1109,"DIAZEPAM 2 MG TAB","",0.2,2,2
1110,"DIAZEPAM 2 MG TABLET","",0.2,2,2
1111,"DIAZEPAM 5 MG/5 ML (5 ML) ORAL SOLN","",0.2,1,2
1112,"DIAZEPAM 5 MG/5 ML ORAL SOLN","",0.2,1,2
1114,"DIAZEPAM 5 MG/ML INJECTION","",0.2,5,2
1115,"DIAZEPAM 5 MG/ML IV (DIAZEPAM/SOYBEAN OIL)","",0.2,5,2
1116,"DIAZEPAM 5 MG/ML ORAL CONCENTRATE","",0.2,5,2
1117,"DIAZEPAM 5 MG/ML SYRINGE","",0.2,5,2
1118,"DIAZEPAM 5 MG RECTAL KIT","",0.2,5,2
1119,"DIAZEPAM 5 MG TAB","",0.2,5,2
1120,"DIAZEPAM 5 MG TABLET","",0.2,5,2
1121,"DIAZEPAM AMPUL 5MG/ML IJ","",0.2,5,2
1122,"DIAZEPAM (BULK) 100 % POWDER","",0.2,,2
1123,"DIAZEPAM INJ","",0.2,,2
1124,"DIAZEPAM INTENSOL 5 MG/ML ORAL CONCENTRATE","",0.2,5,2
1125,"DIAZEPAM ORAL","",0.2,,2
1126,"DIAZEPAM RECT","",0.2,,2
1127,"DIAZEPAM (VALIUM)","",0.2,,2
1281,"OXYCONTIN 60 MG TABLET,CRUSH RESISTANT,EXTENDED RELEASE (OXYCODONE HCL)","",1.5,60,1
1282,"OXYCONTIN 30 MG TABLET,CRUSH RESISTANT,EXTENDED RELEASE (OXYCODONE HCL)","",1.5,30,1
1283,"MORPHINE (PF) 25 MG/ML INJECTION","",3,25,1
1285,"MORPHINE IN 0.9 % SOD. CHLORIDE 4 MG/ML (1 ML) IV SYRINGE","",3,4,1
1286,"DIHYDROCODEINE-ASPIRIN-CAFFEINE 16 MG-356.4 MG-30 MG CAP (DIHYDROCODEINE/ASPIRIN/CAFFEIN (DIH34574))","",0.15,16,1
1287,"HYDROCODONE BITARTRATE (BULK) POWDER","",1,,1
1288,"FENTANYL 87.5 MCG/HOUR TRANSDERMAL PATCH","",7.2,0.0875,1
1289,"FENTANYL 62.5 MCG/HOUR TRANSDERMAL PATCH","",7.2,0.0625,1
1136,"IMIPRAMINE PAMOATE 100 MG CAP","",0.2,100,2
1137,"IMIPRAMINE PAMOATE 100 MG CAPSULE","",0.2,100,2
1138,"IMIPRAMINE PAMOATE 150 MG CAP","",0.2,150,2
1139,"IMIPRAMINE PAMOATE 150 MG CAPSULE","",0.2,150,2
1140,"IMIPRAMINE PAMOATE 75 MG CAP","",0.2,75,2
1141,"IMIPRAMINE PAMOATE 75 MG CAPSULE","",0.2,75,2
1142,"IMIPRAMINE PAMOATE ORAL","",0.2,,2
1143,"OLANZAPINE PAMOATE 300 MG IM SUSP","",0.2,300,2
1144,"OLANZAPINE PAMOATE 405 MG IM SUSP","",0.2,405,2
1145,"TOFRANIL-PM 100 MG CAP (IMIPRAMINE PAMOATE)","",0.2,100,2
1146,"TOFRANIL-PM 150 MG CAP (IMIPRAMINE PAMOATE)","",0.2,150,2
1147,"TOFRANIL-PM 75 MG CAP (IMIPRAMINE PAMOATE)","",0.2,75,2
1148,"VALIUM 10 MG TAB (DIAZEPAM)","",0.2,10,2
1149,"VALIUM 10 MG TABLET (DIAZEPAM)","",0.2,10,2
1150,"VALIUM 2 MG TAB (DIAZEPAM)","",0.2,2,2
1151,"VALIUM 2 MG TABLET (DIAZEPAM)","",0.2,2,2
1152,"VALIUM 5 MG/ML INJECTION (DIAZEPAM)","",0.2,5,2
1153,"VALIUM 5 MG/ML SYRINGE (DIAZEPAM)","",0.2,5,2
1154,"VALIUM 5 MG TAB (DIAZEPAM)","",0.2,5,2
1155,"VALIUM 5 MG TABLET (DIAZEPAM)","",0.2,5,2
1156,"VALIUM ORAL","",0.2,,2
1290,"MORPHINE (PF) 8 MG/ML IV CARTRIDGE","",3,8,1
202,"FENTANYL (PF) 1,200 MCG/24 ML (50 MCG/ML) IV PCA SYRINGE","",7.2,0.05,1
1161,"ZYPREXA RELPREVV 405 MG IM SUSP (OLANZAPINE PAMOATE)","",0.2,405,2
1162,"ESTAZOLAM 1 MG TAB","",0.667,1,2
1163,"ESTAZOLAM 1 MG TABLET","",0.667,1,2
1164,"ESTAZOLAM 2 MG TAB","",0.667,2,2
1165,"ESTAZOLAM 2 MG TABLET","",0.667,2,2
1166,"PROSOM 1 MG TAB (ESTAZOLAM)","",0.667,1,2
1167,"PROSOM 2 MG TAB (ESTAZOLAM)","",0.667,2,2
1168,"DALMANE 15 MG CAP (FLURAZEPAM HCL)","",0.667,15,2
1169,"DALMANE 30 MG CAP (FLURAZEPAM HCL)","",0.667,30,2
1170,"DALMANE ORAL","",0.667,,2
1171,"FLURAZEPAM 15 MG CAP","",0.667,15,2
1172,"FLURAZEPAM 15 MG CAPSULE","",0.667,15,2
1173,"FLURAZEPAM 30 MG CAP","",0.667,30,2
1174,"FLURAZEPAM 30 MG CAPSULE","",0.667,30,2
1175,"FLURAZEPAM HCL (DALMANE)","",0.667,,2
1176,"FLURAZEPAM ORAL","",0.667,,2
1177,"ATIVAN 0.5 MG TABLET (LORAZEPAM)","",1,0.5,2
1178,"ATIVAN 0.5 MG TAB (LORAZEPAM)","",1,0.5,2
1179,"ATIVAN 1 MG TABLET (LORAZEPAM)","",1,1,2
1180,"ATIVAN 1 MG TAB (LORAZEPAM)","",1,1,2
1181,"ATIVAN 2 MG/ML INJECTION (LORAZEPAM)","",1,2,2
1182,"ATIVAN 2 MG/ML SYRINGE (LORAZEPAM)","",1,2,2
1183,"ATIVAN 2 MG TABLET (LORAZEPAM)","",1,2,2
1184,"ATIVAN 2 MG TAB (LORAZEPAM)","",1,2,2
1185,"ATIVAN 4 MG/ML INJECTION (LORAZEPAM)","",1,4,2
1186,"ATIVAN INJ","",1,,2
1187,"ATIVAN ORAL","",1,,2
1188,"LORAZEPAM 0.5 MG TAB","",1,0.5,2
1189,"LORAZEPAM 0.5 MG TABLET","",1,0.5,2
1190,"LORAZEPAM 1 MG TAB","",1,1,2
1191,"LORAZEPAM 1 MG TABLET","",1,1,2
1192,"LORAZEPAM 2 MG/ML INJECTION","",1,2,2
1193,"LORAZEPAM 2 MG/ML ORAL CONCENTRATE","",1,2,2
1194,"LORAZEPAM 2 MG/ML SYRINGE","",1,2,2
1195,"LORAZEPAM 2 MG TAB","",1,2,2
1196,"LORAZEPAM 2 MG TABLET","",1,2,2
1197,"LORAZEPAM 4 MG/ML INJECTION","",1,4,2
1198,"LORAZEPAM (ATIVAN)","",1,,2
1199,"LORAZEPAM (BULK) 100 % POWDER","",1,,2
1200,"LORAZEPAM (BULK) MISC","",1,,2
1201,"LORAZEPAM INTENSOL 2 MG/ML ORAL CONCENTRATE","",1,2,2
1202,"LORAZEPAM INTENSOL ORAL","",1,,2
1203,"LORAZEPAM ORAL","",1,,2
1204,"OXAZEPAM 10 MG CAP","",0.1,10,2
1205,"OXAZEPAM 10 MG CAPSULE","",0.1,10,2
1206,"OXAZEPAM 15 MG CAP","",0.1,15,2
1207,"OXAZEPAM 15 MG CAPSULE","",0.1,15,2
1208,"OXAZEPAM 15 MG TAB","",0.1,15,2
1209,"OXAZEPAM 15 MG TABLET","",0.1,15,2
1210,"OXAZEPAM 30 MG CAP","",0.1,30,2
1211,"OXAZEPAM 30 MG CAPSULE","",0.1,30,2
1212,"OXAZEPAM ORAL","",0.1,,2
1213,"SERAX 10 MG CAP (OXAZEPAM)","",0.1,10,2
1214,"SERAX 15 MG CAP (OXAZEPAM)","",0.1,15,2
1215,"SERAX 15 MG TAB (OXAZEPAM)","",0.1,15,2
1216,"SERAX 30 MG CAP (OXAZEPAM)","",0.1,30,2
1217,"SERAX ORAL","",0.1,,2
1218,"DORAL 15 MG TAB (QUAZEPAM)","",0.05,15,2
1219,"QUAZEPAM 15 MG TAB","",0.05,15,2
1220,"RESTORIL 15 MG CAP (TEMAZEPAM)","",0.1,15,2
1221,"RESTORIL 22.5 MG CAP (TEMAZEPAM)","",0.1,22.5,2
1222,"RESTORIL 30 MG CAP (TEMAZEPAM)","",0.1,30,2
1223,"RESTORIL 7.5 MG CAP (TEMAZEPAM)","",0.1,7.5,2
1224,"RESTORIL ORAL","",0.1,,2
1225,"TEMAZEPAM 15 MG CAP","",0.1,15,2
1226,"TEMAZEPAM 15 MG CAPSULE","",0.1,15,2
1227,"TEMAZEPAM 22.5 MG CAP","",0.1,22.5,2
1228,"TEMAZEPAM 22.5 MG CAPSULE","",0.1,22.5,2
1229,"TEMAZEPAM 30 MG CAP","",0.1,30,2
1230,"TEMAZEPAM 30 MG CAPSULE","",0.1,30,2
1231,"TEMAZEPAM 7.5 MG CAP","",0.1,7.5,2
1232,"TEMAZEPAM 7.5 MG CAPSULE","",0.1,7.5,2
1233,"TEMAZEPAM ORAL","",0.1,,2
1234,"HALCION 0.125 MG TAB (TRIAZOLAM)","",4,0.125,2
1235,"HALCION 0.25 MG TAB (TRIAZOLAM)","",4,0.25,2
1236,"HALCION ORAL","",4,,2
1237,"TRIAZOLAM 0.125 MG TAB","",4,0.125,2
1238,"TRIAZOLAM 0.125 MG TABLET","",4,0.125,2
1239,"TRIAZOLAM 0.25 MG TAB","",4,0.25,2
1240,"TRIAZOLAM 0.25 MG TABLET","",4,0.25,2
1241,"TRIAZOLAM ORAL","",4,,2
203,"FENTANYL (PF) 50 MCG/ML INJECTION","",7.2,0.05,1
204,"FENTANYL (PF) 50 MCG/ML IV","",7.2,0.05,1
205,"FENTANYL (PF) 50 MCG/ML SYRINGE","",7.2,0.05,1
208,"FENTANYL 100 MCG/2 ML (50 MCG/ML) IV SYRINGE","",7.2,0.05,1
237,"FENTANYL IN NS (PF) 25 MCG/ML INJECTION","",7.2,0.0025,1
239,"FENTANYL-BUPIVACAINE IN NS (PF) 2 MCG/ML-0.1 % PUMP RESERV,PREFILLED (FENTANYL/BUPIVACAINE/NS/PF)","",7.2,0.002,1
240,"FENTANYL-BUPIVACAINE-NACL (PF) 2 MCG/ML-0.1 % PUMP RESERVOIR (FENTANYL/BUPIVACAINE/NS/PF)","",7.2,0.002,1
1247,"OXYCODONE ER 60 MG TABLET,CRUSH RESISTANT,EXTENDED RELEASE 12 HR","",1.5,60,1
1243,"MORPHINE ER 20 MG-NALTREXONE 0.8 MG CAPSULE, EXTEND RELEASE, ORAL ONLY","",1,20,1
1244,"MORPHINE 2 MG/ML INTRAVENOUS SYRINGE","",3,2,1
1245,"MORPHINE ER 30 MG-NALTREXONE 1.2 MG CAPSULE, EXTEND RELEASE, ORAL ONLY","",1,30,1
1246,"OXYCODONE ER 30 MG TABLET,CRUSH RESISTANT,EXTENDED RELEASE 12 HR","",1.5,30,1
1248,"OXYCODONE ER 20 MG TABLET,CRUSH RESISTANT,EXTENDED RELEASE 12 HR","",1.5,20,1
1242,"LORTAB 10 MG-325 MG TABLET (HYDROCODONE/ACETAMINOPHEN)","",1,10,1
1291,"FENTANYL CITRATE (PF) INJ","",7.2,,1
1249,"HYDROCODONE-ACETAMINOPHEN 10 MG-400 MG TAB (HYDROCODONE BIT/ACETAMINOPHEN)","",1,10,1
1250,"FENTANYL 600 MCG BUCCAL TAB, EFFERVESCENT","",0.13,0.6,1
1251,"HYDROCODONE BITARTRATE ER 15 MG CAPSULE,EXTENDED RELEASE 12 HR","",1,15,1
1252,"HYDROCODONE BITARTRATE ER 10 MG CAPSULE, ORAL ONLY, EXTEND. REL 12 HR","",1,10,1
1253,"FENTANYL 1,200 MCG BUCCAL FILM","",0.18,1.2,1
1254,"MORPHINE ER 100 MG-NALTREXONE 4 MG CAPSULE, EXTEND RELEASE, ORAL ONLY","",1,100,1
1255,"HYDROCODONE BITARTRATE ER 20 MG TABLET,CRUSH RESIST,EXTENDED REL. 24HR","",1,20,1
1256,"LORAZEPAM IVPB","",1,,2
1257,"TALACEN ORAL","",37,,1
1258,"IMIPRAMINE PAMOATE 125 MG CAP","",0.2,125,2
1259,"MORPHINE IV","",3,1,1
1260,"OXYMORPHONE ORAL","",3,,1
1261,"MORPHINE IN D5W 1 MG/ML PUMP RESERVOIR, PREFILLED","",1,1,1
1262,"MORPHINE (PF) IN 0.9% SODIUM CHLORIDE 10 MG/ML (1 ML) IV SYRINGE","",3,10,1
630,"MORPHINE (PF) IV","",3,1,1
1263,"TEMSIROLIMUS IV","",3,,1
1264,"CHLORDIAZEPOXIDE HCL ORAL","",0.04,,2
1265,"65NAX 2 MG TAB (ALPRAZOLAM)","",2,2,2
1266,"LORTAB 5-325 ORAL","",1,5,1
1308,"HYDROCODONE BITARTRATE ER 20 MG CAPSULE, ORAL ONLY, EXTEND. REL 12 HR","",1,20,1
1268,"MORPHINE ER 50 MG-NALTREXONE 2 MG CAPSULE, EXTEND RELEASE, ORAL ONLY","",1,50,1
1269,"MORPHINE(PF) IN 0.9% SOD.CHLORIDE 30 MG/30 ML (1 MG/ML) IV PCA SYRINGE (MORPHINE SULFATE/0.9% NACL/PF)","",3,1,1
1270,"OLANZAPINE PAMOATE 210 MG IM SUSP","",0.2,210,2
1271,"MORPHINE ER 60 MG-NALTREXONE 2.4 MG CAPSULE, EXTEND RELEASE, ORAL ONLY","",1,60,1
1272,"OXYCONTIN 15 MG TABLET,CRUSH RESISTANT,EXTENDED RELEASE (OXYCODONE HCL)","",1.5,15,1
1273,"MORPHINE (PF) 1 MG/2 ML INTRAVENOUS SYRINGE","",3,0.5,1
1274,"HYDROCODONE-CHLORPHENIRAMINE ORAL","",1,,1
1275,"OXYCONTIN 20 MG TABLET,CRUSH RESISTANT,EXTENDED RELEASE (OXYCODONE HCL)","",1.5,20,1
1276,"MORPHINE LIPOSOMAL (PF) 15 MG/1.5 ML SUSP, EPIDURAL INJECTION","",3,10,1
1277,"HYDROCODONE BITARTRATE ER 40 MG TABLET,CRUSH RESIST,EXTENDED REL. 24HR","",1,40,1
1278,"HYDROCODONE BITARTRATE ER 80 MG TABLET,CRUSH RESIST,EXTENDED REL. 24HR","",1,80,1
1279,"OXYCONTIN 80 MG TABLET,CRUSH RESISTANT,EXTENDED RELEASE (OXYCODONE HCL)","",1.5,80,1
1280,"OXYCONTIN 40 MG TABLET,CRUSH RESISTANT,EXTENDED RELEASE (OXYCODONE HCL)","",1.5,40,1
1292,"CODEINE 14.7 MG-CHLORPHENIRAMINE 2.8 MG/5 ML ORAL SUSP,EXT.REL. 12 HR","",0.15,0.56,1
1293,"OXYMORPHONE 10 MG TAB (OXYMORPHONE HCL)","",3,10,1
1333,"MORPHINE INJ","",3,,1
1295,"OXYCODONE ER 18 MG CAPSULE SPRINKLE EXT RELEASE 12 HR (TAMPER RESIST)","",1.5,18,1
1309,"MORPHINE 30 MG TABLET, CRUSH RESISTANT, EXTENDED RELEASE","",1,30,1
1267,"VIRTUSSIN AC 10 MG-100 MG/5 ML ORAL LIQUID (GUAIFENESIN/CODEINE PHOSPHATE)","",0.15,2,1
1296,"GUAIATUSSIN AC 10 MG-100 MG/5 ML ORAL LIQUID (CODEINE PHOSPHATE/GUAIFENESIN)","",0.15,2,1
1297,"FENTANYL IN NS (PF) 10 MCG/ML INJECTION","",7.2,0.01,1
1298,"MORPHINE 20 MG CAP, SUST. RELEASE PELLETS (MORPHINE SULFATE)","",1,20,1
1299,"FIORICET WITH CODEINE 50 MG-300 MG-40 MG-30 MG CAPSULE (BUTALBIT/ACETAMIN/CAFF/CODEINE)","",0.15,30,1
1300,"PSEUDOEPHEDRINE-HYDROCODONE 60 MG-5 MG/5 ML ORAL SOLN (P-EPHED HCL/HYDROCODONE BIT)","",1,1,1
1301,"HYDROMORPHONE (PF) 0.5 MG/0.5 ML INJECTION SYRINGE","",20,1,1
1310,"MORPHINE 60 MG TABLET, CRUSH RESISTANT, EXTENDED RELEASE","",1,60,1
1343,"HYSINGLA ER 20 MG TABLET, CRUSH RESISTANT, EXTENDED RELEASE (HYDROCODONE BITARTRATE)","",1,20,1
1311,"HYDROCODONE BITARTRATE ER 30 MG CAPSULE, ORAL ONLY, EXTEND. REL 12 HR","",1,30,1
1312,"BELLADONNA ALKALOIDS-OPIUM RECT","",1,,1
1313,"MORPHINE (PF) IN D5W 100 MG/100 ML IV","",3,1,1
1314,"PSEUDOEPHEDRINE-HYDROCODONE ORAL","",1,,1
1315,"MORPHINE 8 MG/ML INJECTION","",3,8,1
1316,"APOMORPHINE 10 MG/ML SUBQ CARTRIDGE","",3,10,1
1344,"HYSINGLA ER 60 MG TABLET, CRUSH RESISTANT, EXTENDED RELEASE (HYDROCODONE BITARTRATE)","",1,60,1
1317,"MORPHINE 4 MG/ML INTRAVENOUS SOLUTION","",3,4,1
1354,"MORPHINE 2 MG/ML IV SYRINGE","",3,2,1
1318,"MORPHINE 4 MG/ML INTRAVENOUS SOLUTION","",3,4,1
1319,"MORPHINE ER 30 MG TABLET, CRUSH RESISTANT, EXTENDED RELEASE 12 HR","",1,30,1
1320,"DILAUDID (PF) 4 MG/ML INJECTION SYRINGE (HYDROMORPHONE HCL/PF)","",20,4,1
1321,"HYDROMORPHONE IN NS 1 MG/ML (1 ML) IV SYRINGE","",20,1,1
1322,"ACETAMINOPHEN 325 MG-CAFFEINE 30 MG-DIHYDROCODEINE 16 MG TABLET (ACETAMINOPHEN/CAFF/DIHYDROCOD)","",0.15,16,1
1323,"MORPHINE ER 15 MG TABLET, CRUSH RESISTANT, EXTENDED RELEASE 12 HR","",1,15,1
1345,"PSEUDOEPHEDRINE-CODEINE-GG 15 MG-3 MG-60 MG/3 ML ORAL SUSP (P-EPHED HCL/CODEINE/GUAIFEN)","",0.15,3,1
1325,"CODITUSSIN AC 10 MG-200 MG/5 ML ORAL LIQUID (GUAIFENESIN/CODEINE PHOSPHATE)","",0.15,40,1
1326,"HYSINGLA ER 30 MG TABLET, CRUSH RESISTANT, EXTENDED RELEASE (HYDROCODONE BITARTRATE)","",1,30,1
1327,"EMBEDA 20 MG-0.8 MG CAPSULE, EXTEND RELEASE, ORAL ONLY (MORPHINE SULFATE/NALTREXONE)","",1,20,1
1328,"ZOHYDRO ER 15 MG CAPSULE, ORAL ONLY,EXTENDED RELEASE (HYDROCODONE BITARTRATE)","",1,15,1
1329,"PSEUDOEPHEDRINE 30 MG-CODEINE 10 MG-GUAIFEN 200 MG/5 ML ORAL LIQUID (P-EPHED HCL/CODEINE/GUAIFEN)","",0.15,10,1
1330,"XTAMPZA ER 18 MG CAPSULE SPRINKLE (OXYCODONE MYRISTATE)","",1.5,18,1
1331,"MORPHABOND ER 30 MG TABLET, CRUSH RESISTANT, EXTENDED RELEASE (MORPHINE SULFATE)","",1,30,1
1294,"OXYMORPHONE 10 MG TAB (OXYMORPHONE HCL)","",3,10,1
1334,"OXYCODONE ER 36 MG CAPSULE SPRINKLE EXT RELEASE 12 HR (TAMPER RESIST)","",1.5,36,1
1105,"DIAZEPAM 12.5 MG-15 MG-17.5 MG-20 MG RECTAL KIT","",0.2,12.5,2
1356,"MORPHINE 4 MG/ML INJECTION SOLUTION","",3,4,1
1336,"PHENYLEPH-HYDROCODONE ORAL","",1,,1
1337,"MORPHINE 10 MG RECTAL SUPPOSITORY (MORPHINE SULFATE)","",1,10,1
1338,"HYSINGLA ER 40 MG TABLET, CRUSH RESISTANT, EXTENDED RELEASE (HYDROCODONE BITARTRATE)","",1,40,1
1096,"DIASTAT ACUDIAL 12.5 MG-15 MG-17.5 MG-20 MG RECTAL KIT (DIAZEPAM)","",0.2,12.5,2
1339,"LORCET HD 10 MG-325 MG TABLET (HYDROCODONE/ACETAMINOPHEN)","",1,10,1
1340,"OXYCODONE ER 27 MG CAPSULE SPRINKLE EXT RELEASE 12 HR (TAMPER RESIST)","",1.5,27,1
1341,"OXYCODONE ER 9 MG CAPSULE SPRINKLE EXTEND RELEASE 12 HR(TAMPER RESIST)","",1.5,9,1
1342,"ALPRAZOLAM INTENSOL ORAL","",2,,2
1097,"DIASTAT ACUDIAL 5 MG-7.5 MG-10 MG RECTAL KIT (DIAZEPAM)","",0.2,5,2
1113,"DIAZEPAM 5 MG-7.5 MG-10 MG RECTAL KIT","",0.2,5,2
1346,"HYDROMORPHONE (PF) 2 MG/ML IN 0.9% SODIUM CHLORIDE INTRAVENOUS SYRINGE","",20,2,1
359,"HYDROCODONE-GUAIFENESIN 2.5 MG-200 MG/5 ML SYRUP (GUAIFENESIN/HYDROCODONE BIT)","",1,2.5,1
1348,"LORAZEPAM INJ","",1,,2
1335,"FENTANYL 1,600 MCG LOZENGE ON A HANDLE","",0.13,1.6,1
1349,"FENTANYL 300 MCG/SPRAY NASAL SPRAY","",0.16,0.3,1
1350,"OXYCODONE 30 MG TABLET,ORAL ONLY (NOT FEEDING TUBES)","",1.5,30,1
1351,"OXYCODONE 15 MG TABLET,ORAL ONLY (NOT FEEDING TUBES)","",1.5,15,1
1352,"CHLORPHENIRAMINE-CODEINE 2 MG-10 MG/10 ML ORAL SUSP (CHLORPHENIRAMINE/CODEINE PHOS)","",0.15,1,1
1353,"MORPHINE 0.4 MG/ML ORAL SYRINGE (FOR ORAL USE ONLY)","",1,0.4,1
1355,"HYDROCODONE BITARTRATE ER 60 MG TABLET,CRUSH RESIST,EXTENDED REL. 24HR","",1,60,1
1358,"LORCET (HYDROCODONE) 5 MG-325 MG TABLET (HYDROCODONE/ACETAMINOPHEN)","",1,5,1
365,"HYDROCODONE-GUAIFENESIN 5 MG-100 MG/5 ML SYRUP (GUAIFENESIN/HYDROCODONE BIT)","",1,5,1
1357,"HYDROMORPHONE(PF) 10 MG/50 ML (0.2 MG/ML)-0.9 % NACL IV PUMP RESERVOIR (HYDROMORPHONE HCL/0.9% NACL/PF)","",20,0.2,1
1359,"LORCET PLUS 7.5 MG-325 MG TABLET (HYDROCODONE/ACETAMINOPHEN)","",1,7.5,1
1362,"KADIAN 40 MG CAPSULE,EXTENDED RELEASE (MORPHINE SULFATE)","",1,40,1
1363,"HYDROMORPHONE-GG ORAL","",4,,1
1360,"HYDROMORPHONE (BULK) MISC","",4,,1
1361,"HYDROMORPHONE (BULK) POWDER","",4,,1
